Pixel, Counts0, Counts1, Time (ms), SMap Point Done
1,234422,258103,70.00,3,
2,234422,258103,70.00,3,
3,234422,258103,70.00,3,
4,234422,258103,70.00,3,
5,234422,258103,70.00,3,
6,234422,258103,70.00,3,
7,234422,258103,70.00,3,
8,234422,258103,75.60,3,
9,234422,258103,78.00,3,
10,234422,258103,78.00,3,
11,234422,258103,78.00,3,
12,234422,258103,78.00,3,
13,234422,258103,78.00,3,
14,234422,258103,78.00,3,
15,234422,258103,78.00,3,
16,234422,258103,78.00,3,
17,234422,258103,78.00,3,
18,234422,258103,78.00,3,
19,234422,258103,78.00,3,
20,234422,258103,78.00,3,
21,234422,258103,78.00,3,
22,234422,258103,78.00,3,
23,234422,258103,78.00,3,
24,234422,258103,78.00,3,
25,234422,258103,78.00,3,
26,234422,258103,78.00,3,
27,234422,258103,78.00,3,
28,234422,258103,78.00,3,
29,234422,258103,78.00,3,
30,234422,258103,78.00,3,
31,234422,258103,78.00,3,
32,234422,258103,78.00,3,
33,234422,258103,78.00,3,
34,234422,258103,78.00,3,
35,234422,258103,78.00,3,
36,234422,258103,78.00,3,
37,234422,258103,78.00,3,
38,234422,258103,78.00,3,
39,234422,258103,78.00,3,
40,234422,258103,78.00,3,
41,234422,258103,78.00,3,
42,234422,258103,78.00,3,
43,234422,258103,78.00,3,
44,234422,258103,78.00,3,
45,234422,258103,78.00,3,
46,234422,258103,78.00,3,
47,234422,258103,78.00,3,
48,234422,258103,78.00,3,
49,234422,258103,78.00,3,
50,234422,258103,78.00,3,
51,234422,258103,78.00,3,
52,234422,258103,78.00,3,
53,234422,258103,78.00,3,
54,234422,258103,78.00,3,
55,234422,258103,78.00,3,
56,234422,258103,78.00,3,
57,234422,258103,78.00,3,
58,234422,258103,78.00,3,
59,234422,258103,78.00,3,
60,234422,258103,78.00,3,
61,234422,258103,78.00,3,
62,234422,258103,78.00,3,
63,234422,258103,78.00,3,
64,234422,258103,78.00,3,
65,234422,258103,78.00,3,
66,234422,258103,78.00,3,
67,234422,258103,78.00,3,
68,234422,258103,78.00,3,
69,234422,258103,78.00,3,
70,234422,258103,78.00,3,
71,234422,258103,78.00,3,
72,234422,258103,78.00,3,
73,234422,258103,78.00,3,
74,234422,258103,78.00,3,
75,234422,258103,78.00,3,
76,234422,258103,78.00,3,
77,234422,258103,78.00,3,
78,234422,258103,78.00,3,
79,234422,258103,78.00,3,
80,234422,258103,78.00,3,
81,234422,258103,78.00,3,
82,234422,258103,78.00,3,
83,234422,258103,78.00,3,
84,234422,258103,78.00,3,
85,234422,258103,78.00,3,
86,234422,258103,78.00,3,
87,234422,258103,78.00,3,
88,234422,258103,78.00,3,
89,234422,258103,78.00,3,
90,234422,258103,78.00,3,
91,234422,258103,78.00,3,
92,234422,258103,78.00,3,
93,234422,258103,78.00,3,
94,234422,258103,78.00,3,
95,234422,258103,78.00,3,
96,234422,258103,78.00,3,
97,234422,258103,78.00,3,
98,234422,258103,78.00,3,
99,234422,258103,78.00,3,
100,234422,258103,78.00,3,
101,234422,258103,78.00,3,
102,234422,258103,78.00,3,
103,234422,258103,78.00,3,
104,234422,258103,78.00,3,
105,234422,258103,78.00,3,
106,234422,258103,78.00,3,
107,234422,258103,78.00,3,
108,234422,258103,78.00,3,
109,234422,258103,78.00,3,
110,234422,258103,78.00,3,
111,234422,258103,78.00,3,
112,234422,258103,78.00,3,
113,234422,258103,78.00,3,
114,234422,258103,78.00,3,
115,234422,258103,78.00,3,
116,234422,258103,78.00,3,
117,234422,258103,78.00,3,
118,234422,258103,78.00,3,
119,234422,258103,78.00,3,
120,234422,258103,78.00,3,
121,234422,258103,78.00,3,
122,234422,258103,78.00,3,
123,234422,258103,78.00,3,
124,234422,258103,78.00,3,
125,234422,258103,78.00,3,
126,234422,258103,78.00,3,
127,234422,258103,78.00,3,
128,234422,258103,78.00,3,
129,234422,258103,78.00,3,
130,234422,258103,78.00,3,
131,234422,258103,78.00,3,
132,234422,258103,78.00,3,
133,234422,258103,78.00,3,
134,234422,258103,78.00,3,
135,234422,258103,78.00,3,
136,234422,258103,78.00,3,
137,234422,258103,78.00,3,
138,234422,258103,78.00,3,
139,234422,258103,78.00,3,
140,234422,258103,78.00,3,
141,234422,258103,78.00,3,
142,234422,258103,78.00,3,
143,234422,258103,78.00,3,
144,234422,258103,78.00,3,
145,234422,258103,78.00,3,
146,234422,258103,78.00,3,
147,234422,258103,78.00,3,
148,234422,258103,78.00,3,
149,234422,258103,78.00,3,
150,234422,258103,78.00,3,
151,234422,258103,78.00,3,
152,234422,258103,78.00,3,
153,234422,258103,78.00,3,
154,234422,258103,78.00,3,
155,234422,258103,78.00,3,
156,234422,258103,78.00,3,
157,234422,258103,78.00,3,
158,234422,258103,78.00,3,
159,234422,258103,78.00,3,
160,234422,258103,78.00,3,
161,234422,258103,78.00,3,
162,234422,258103,78.00,3,
163,234422,258103,78.00,3,
164,234422,258103,78.00,3,
165,234422,258103,78.00,3,
166,234422,258103,78.00,3,
167,234422,258103,78.00,3,
168,234422,258103,78.00,3,
169,234422,258103,78.00,3,
170,234422,258103,78.00,3,
171,234422,258103,78.00,3,
172,234422,258103,78.00,3,
173,234422,258103,78.00,3,
174,234422,258103,78.00,3,
175,234422,258103,78.00,3,
176,234422,258103,78.00,3,
177,234422,258103,78.00,3,
178,234422,258103,78.00,3,
179,234422,258103,78.00,3,
180,234422,258103,78.00,3,
181,234422,258103,78.00,3,
182,234422,258103,78.00,3,
183,234422,258103,78.00,3,
184,234422,258103,78.00,3,
185,234422,258103,78.00,3,
186,234422,258103,78.00,3,
187,234422,258103,78.00,3,
188,234422,258103,78.00,3,
189,234422,258103,78.00,3,
190,234422,258103,78.00,3,
191,234422,258103,78.00,3,
192,234422,258103,78.00,3,
193,234422,258103,78.00,3,
194,234422,258103,78.00,3,
195,234422,258103,78.00,3,
196,234422,258103,78.00,3,
197,234422,258103,78.00,3,
198,234422,258103,78.00,3,
199,234422,258103,78.00,3,
200,234422,258103,78.00,3,
201,234422,258103,78.00,3,
202,234422,258103,78.00,3,
203,234422,258103,78.00,3,
204,234422,258103,78.00,3,
205,234422,258103,78.00,3,
206,234422,258103,78.00,3,
207,234422,258103,78.00,3,
208,234422,258103,78.00,3,
209,234422,258103,78.00,3,
210,234422,258103,78.00,3,
211,234422,258103,78.00,3,
212,234422,258103,78.00,3,
213,234422,258103,78.00,3,
214,234422,258103,78.00,3,
215,234422,258103,78.00,3,
216,234422,258103,78.00,3,
217,234422,258103,78.00,3,
218,234422,258103,78.00,3,
219,234422,258103,78.00,3,
220,234422,258103,78.00,3,
221,234422,258103,78.00,3,
222,234422,258103,78.00,3,
223,234422,258103,78.00,3,
224,234422,258103,78.00,3,
225,234422,258103,78.00,3,
226,234422,258103,78.00,3,
227,234422,258103,78.00,3,
228,234422,258103,78.00,3,
229,234422,258103,78.00,3,
230,234422,258103,78.00,3,
231,234422,258103,78.00,3,
232,234422,258103,78.00,3,
233,234422,258103,78.00,3,
234,234422,258103,78.00,3,
235,234422,258103,78.00,3,
236,234422,258103,78.00,3,
237,234422,258103,78.00,3,
238,234422,258103,78.00,3,
239,234422,258103,78.00,3,
240,234422,258103,78.00,3,
241,234422,258103,78.00,3,
242,234422,258103,78.00,3,
243,234422,258103,78.00,3,
244,234422,258103,78.00,3,
245,234422,258103,78.00,3,
246,234422,258103,78.00,3,
247,234422,258103,78.00,3,
248,234422,258103,78.00,3,
249,234422,258103,78.00,3,
250,234422,258103,78.00,3,
251,234422,258103,78.00,3,
252,234422,258103,78.00,3,
253,234422,258103,78.00,3,
254,234422,258103,78.00,3,
255,234422,258103,78.00,3,
256,234422,258103,78.00,3,
257,234422,258103,78.00,3,
258,234422,258103,78.00,3,
259,234422,258103,78.00,3,
260,234422,258103,78.00,3,
261,234422,258103,78.00,3,
262,234422,258103,78.00,3,
263,234422,258103,78.00,3,
264,234422,258103,78.00,3,
265,234422,258103,78.00,3,
266,234422,258103,78.00,3,
267,234422,258103,78.00,3,
268,234422,258103,78.00,3,
269,234422,258103,78.00,3,
270,234422,258103,78.00,3,
271,234422,258103,78.00,3,
272,234422,258103,78.00,3,
273,234422,258103,78.00,3,
274,234422,258103,78.00,3,
275,234422,258103,78.00,3,
276,234422,258103,78.00,3,
277,234422,258103,78.00,3,
278,234422,258103,78.00,3,
279,234422,258103,78.00,3,
280,234422,258103,78.00,3,
281,234422,258103,78.00,3,
282,234422,258103,78.00,3,
283,234422,258103,78.00,3,
284,234422,258103,78.00,3,
285,234422,258103,78.00,3,
286,234422,258103,78.00,3,
287,234422,258103,78.00,3,
288,234422,258103,78.00,3,
289,234422,258103,78.00,3,
290,234422,258103,78.00,3,
291,234422,258103,78.00,3,
292,234422,258103,78.00,3,
293,234422,258103,78.00,3,
294,234422,258103,78.00,3,
295,234422,258103,78.00,3,
296,234422,258103,78.00,3,
297,234422,258103,78.00,3,
298,234422,258103,78.00,3,
299,234422,258103,78.00,3,
300,234422,258103,78.00,3,
301,234422,258103,78.00,3,
302,234422,258103,78.00,3,
303,234422,258103,78.00,3,
304,234422,258103,78.00,3,
305,234422,258103,78.00,3,
306,234422,258103,78.00,3,
307,234422,258103,78.00,3,
308,234422,258103,78.00,3,
309,234422,258103,78.00,3,
310,234422,258103,78.00,3,
311,234422,258103,78.00,3,
312,234422,258103,78.00,3,
313,234422,258103,78.00,3,
314,234422,258103,78.00,3,
315,234422,258103,78.00,3,
316,234422,258103,78.00,3,
317,234422,258103,78.00,3,
318,234422,258103,78.00,3,
319,234422,258103,78.00,3,
320,234422,258103,78.00,3,
321,234422,258103,78.00,3,
322,234422,258103,78.00,3,
323,234422,258103,78.00,3,
324,234422,258103,78.00,3,
325,234422,258103,78.00,3,
326,234422,258103,78.00,3,
327,234422,258103,78.00,3,
328,234422,258103,78.00,3,
329,234422,258103,78.00,3,
330,234422,258103,78.00,3,
331,234422,258103,78.00,3,
332,234422,258103,78.00,3,
333,234422,258103,78.00,3,
334,234422,258103,78.00,3,
335,234422,258103,78.00,3,
336,234422,258103,78.00,3,
337,234422,258103,78.00,3,
338,234422,258103,78.00,3,
339,234422,258103,78.00,3,
340,234422,258103,78.00,3,
341,234422,258103,78.00,3,
342,234422,258103,78.00,3,
343,234422,258103,78.00,3,
344,234422,258103,78.00,3,
345,234422,258103,78.00,3,
346,234422,258103,78.00,3,
347,234422,258103,78.00,3,
348,234422,258103,78.00,3,
349,234422,258103,78.00,3,
350,234422,258103,78.00,3,
351,234422,258103,78.00,3,
352,234422,258103,78.00,3,
353,234422,258103,78.00,3,
354,234422,258103,78.00,3,
355,234422,258103,78.00,3,
356,234422,258103,78.00,3,
357,234422,258103,78.00,3,
358,234422,258103,78.00,3,
359,234422,258103,78.00,3,
360,234422,258103,78.00,3,
361,234422,258103,78.00,3,
362,234422,258103,78.00,3,
363,234422,258103,78.00,3,
364,234422,258103,78.00,3,
365,234422,258103,78.00,3,
366,234422,258103,78.00,3,
367,234422,258103,78.00,3,
368,234422,258103,78.00,3,
369,234422,258103,78.00,3,
370,234422,258103,78.00,3,
371,234422,258103,78.00,3,
372,234422,258103,78.00,3,
373,234422,258103,78.00,3,
374,234422,258103,78.00,3,
375,234422,258103,78.00,3,
376,234422,258103,78.00,3,
377,234422,258103,78.00,3,
378,234422,258103,78.00,3,
379,234422,258103,78.00,3,
380,234422,258103,78.00,3,
381,234422,258103,78.00,3,
382,234422,258103,78.00,3,
383,234422,258103,78.00,3,
384,234422,258103,78.00,3,
385,234422,258103,78.00,3,
386,234422,258103,78.00,3,
387,234422,258103,78.00,3,
388,234422,258103,78.00,3,
389,234422,258103,78.00,3,
390,234422,258103,78.00,3,
391,234422,258103,78.00,3,
392,234422,258103,78.00,3,
393,234422,258103,78.00,3,
394,234422,258103,78.00,3,
395,234422,258103,78.00,3,
396,234422,258103,78.00,3,
397,234422,258103,78.00,3,
398,234422,258103,78.00,3,
399,234422,258103,78.00,3,
400,234422,258103,78.00,3,
401,234422,258103,78.00,3,
402,234422,258103,78.00,3,
403,234422,258103,78.00,3,
404,234422,258103,78.00,3,
405,234422,258103,78.00,3,
406,234422,258103,78.00,3,
407,234422,258103,78.00,3,
408,234422,258103,78.00,3,
409,234422,258103,78.00,3,
410,234422,258103,78.00,3,
411,234422,258103,78.00,3,
412,234422,258103,78.00,3,
413,234422,258103,78.00,3,
414,234422,258103,78.00,3,
415,234422,258103,78.00,3,
416,234422,258103,78.00,3,
417,234422,258103,78.00,3,
418,234422,258103,78.00,3,
419,234422,258103,78.00,3,
420,234422,258103,78.00,3,
421,234422,258103,78.00,3,
422,234422,258103,78.00,3,
423,234422,258103,78.00,3,
424,234422,258103,78.00,3,
425,234422,258103,78.00,3,
426,234422,258103,78.00,3,
427,234422,258103,78.00,3,
428,234422,258103,78.00,3,
429,234422,258103,78.00,3,
430,234422,258103,78.00,3,
431,234422,258103,78.00,3,
432,234422,258103,78.00,3,
433,234422,258103,78.00,3,
434,234422,258103,78.00,3,
435,234422,258103,78.00,3,
436,234422,258103,78.00,3,
437,234422,258103,78.00,3,
438,234422,258103,78.00,3,
439,234422,258103,78.00,3,
440,234422,258103,78.00,3,
441,234422,258103,78.00,3,
442,234422,258103,78.00,3,
443,234422,258103,78.00,3,
444,234422,258103,78.00,3,
445,234422,258103,78.00,3,
446,234422,258103,78.00,3,
447,234422,258103,78.00,3,
448,234422,258103,78.00,3,
449,234422,258103,78.00,3,
450,234422,258103,78.00,3,
451,234422,258103,78.00,3,
452,234422,258103,78.00,3,
453,234422,258103,78.00,3,
454,234422,258103,78.00,3,
455,234422,258103,78.00,3,
456,234422,258103,78.00,3,
457,234422,258103,78.00,3,
458,234422,258103,78.00,3,
459,234422,258103,78.00,3,
460,234422,258103,78.00,3,
461,234422,258103,78.00,3,
462,234422,258103,78.00,3,
463,234422,258103,78.00,3,
464,234422,258103,78.00,3,
465,234422,258103,78.00,3,
466,234422,258103,78.00,3,
467,234422,258103,78.00,3,
468,234422,258103,78.00,3,
469,234422,258103,78.00,3,
470,234422,258103,78.00,3,
471,234422,258103,78.00,3,
472,234422,258103,78.00,3,
473,234422,258103,78.00,3,
474,234422,258103,78.00,3,
475,234422,258103,78.00,3,
476,234422,258103,78.00,3,
477,234422,258103,78.00,3,
478,234422,258103,78.00,3,
479,234422,258103,78.00,3,
480,234422,258103,78.00,3,
481,234422,258103,78.00,3,
482,234422,258103,78.00,3,
483,234422,258103,78.00,3,
484,234422,258103,78.00,3,
485,234422,258103,78.00,3,
486,234422,258103,78.00,3,
487,234422,258103,78.00,3,
488,234422,258103,78.00,3,
489,234422,258103,78.00,3,
490,234422,258103,78.00,3,
491,234422,258103,78.00,3,
492,234422,258103,78.00,3,
493,234422,258103,78.00,3,
494,234422,258103,78.00,3,
495,234422,258103,78.00,3,
496,234422,258103,78.00,3,
497,234422,258103,78.00,3,
498,234422,258103,78.00,3,
499,234422,258103,78.00,3,
500,234422,258103,78.00,3,
501,234422,258103,78.00,3,
502,234422,258103,78.00,3,
503,234422,258103,78.00,3,
504,234422,258103,78.00,3,
505,234422,258103,78.00,3,
506,234422,258103,78.00,3,
507,234422,258103,78.00,3,
508,234422,258103,78.00,3,
509,234422,258103,78.00,3,
510,234422,258103,78.00,3,
511,234422,258103,78.00,3,
512,234422,258103,78.00,3,
513,234422,258103,78.00,3,
514,234422,258103,78.00,3,
515,234422,258103,78.00,3,
516,234422,258103,78.00,3,
517,234422,258103,78.00,3,
518,234422,258103,78.00,3,
519,234422,258103,78.00,3,
520,234422,258103,78.00,3,
521,234422,258103,78.00,3,
522,234422,258103,78.00,3,
523,234422,258103,78.00,3,
524,234422,258103,78.00,3,
525,234422,258103,78.00,3,
526,234422,258103,78.00,3,
527,234422,258103,78.00,3,
528,234422,258103,78.00,3,
529,234422,258103,78.00,3,
530,234422,258103,78.00,3,
531,234422,258103,78.00,3,
532,234422,258103,78.00,3,
533,234422,258103,78.00,3,
534,234422,258103,78.00,3,
535,234422,258103,78.00,3,
536,234422,258103,78.00,3,
537,234422,258103,78.00,3,
538,234422,258103,78.00,3,
539,234422,258103,78.00,3,
540,234422,258103,78.00,3,
541,234422,258103,78.00,3,
542,234422,258103,78.00,3,
543,234422,258103,78.00,3,
544,234422,258103,78.00,3,
545,234422,258103,78.00,3,
546,234422,258103,78.00,3,
547,234422,258103,78.00,3,
548,234422,258103,78.00,3,
549,234422,258103,78.00,3,
550,234422,258103,78.00,3,
551,234422,258103,78.00,3,
552,234422,258103,78.00,3,
553,234422,258103,78.00,3,
554,234422,258103,78.00,3,
555,234422,258103,78.00,3,
556,234422,258103,78.00,3,
557,234422,258103,78.00,3,
558,234422,258103,78.00,3,
559,234422,258103,78.00,3,
560,234422,258103,78.00,3,
561,234422,258103,78.00,3,
562,234422,258103,78.00,3,
563,234422,258103,78.00,3,
564,234422,258103,78.00,3,
565,234422,258103,78.00,3,
566,234422,258103,78.00,3,
567,234422,258103,78.00,3,
568,234422,258103,78.00,3,
569,234422,258103,78.00,3,
570,234422,258103,78.00,3,
571,234422,258103,78.00,3,
572,234422,258103,78.00,3,
573,234422,258103,78.00,3,
574,234422,258103,78.00,3,
575,234422,258103,78.00,3,
576,234422,258103,78.00,3,
577,234422,258103,78.00,3,
578,234422,258103,78.00,3,
579,234422,258103,78.00,3,
580,234422,258103,78.00,3,
581,234422,258103,78.00,3,
582,234422,258103,78.00,3,
583,234422,258103,78.00,3,
584,234422,258103,78.00,3,
585,234422,258103,78.00,3,
586,234422,258103,78.00,3,
587,234422,258103,78.00,3,
588,234422,258103,78.00,3,
589,234422,258103,78.00,3,
590,234422,258103,78.00,3,
591,234422,258103,78.00,3,
592,234422,258103,78.00,3,
593,234422,258103,78.00,3,
594,234422,258103,78.00,3,
595,234422,258103,78.00,3,
596,234422,258103,78.00,3,
597,234422,258103,78.00,3,
598,234422,258103,78.00,3,
599,234422,258103,78.00,3,
600,234422,258103,78.00,3,
601,234422,258103,78.00,3,
602,234422,258103,78.00,3,
603,234422,258103,78.00,3,
604,234422,258103,78.00,3,
605,234422,258103,78.00,3,
606,234422,258103,78.00,3,
607,234422,258103,78.00,3,
608,234422,258103,78.00,3,
609,234422,258103,78.00,3,
610,234422,258103,78.00,3,
611,234422,258103,78.00,3,
612,234422,258103,78.00,3,
613,234422,258103,78.00,3,
614,234422,258103,78.00,3,
615,234422,258103,78.00,3,
616,234422,258103,78.00,3,
617,234422,258103,78.00,3,
618,234422,258103,78.00,3,
619,234422,258103,78.00,3,
620,234422,258103,78.00,3,
621,234422,258103,78.00,3,
622,234422,258103,78.00,3,
623,234422,258103,78.00,3,
624,234422,258103,78.00,3,
625,234422,258103,78.00,3,
626,234422,258103,78.00,3,
627,234422,258103,78.00,3,
628,234422,258103,78.00,3,
629,234422,258103,78.00,3,
630,234422,258103,78.00,3,
631,234422,258103,78.00,3,
632,234422,258103,78.00,3,
633,234422,258103,78.00,3,
634,234422,258103,78.00,3,
635,234422,258103,78.00,3,
636,234422,258103,78.00,3,
637,234422,258103,78.00,3,
638,234422,258103,78.00,3,
639,234422,258103,78.00,3,
640,234422,258103,78.00,3,
641,234422,258103,78.00,3,
642,234422,258103,78.00,3,
643,234422,258103,78.00,3,
644,234422,258103,78.00,3,
645,234422,258103,78.00,3,
646,234422,258103,78.00,3,
647,234422,258103,78.00,3,
648,234422,258103,78.00,3,
649,234422,258103,78.00,3,
650,234422,258103,78.00,3,
651,234422,258103,78.00,3,
652,234422,258103,78.00,3,
653,234422,258103,78.00,3,
654,234422,258103,78.00,3,
655,234422,258103,78.00,3,
656,234422,258103,78.00,3,
657,234422,258103,78.00,3,
658,234422,258103,78.00,3,
659,234422,258103,78.00,3,
660,234422,258103,78.00,3,
661,234422,258103,78.00,3,
662,234422,258103,78.00,3,
663,234422,258103,78.00,3,
664,234422,258103,78.00,3,
665,234422,258103,78.00,3,
666,234422,258103,78.00,3,
667,234422,258103,78.00,3,
668,234422,258103,78.00,3,
669,234422,258103,78.00,3,
670,234422,258103,78.00,3,
671,234422,258103,78.00,3,
672,234422,258103,78.00,3,
673,234422,258103,78.00,3,
674,234422,258103,78.00,3,
675,234422,258103,78.00,3,
676,234422,258103,78.00,3,
677,234422,258103,78.00,3,
678,234422,258103,78.00,3,
679,234422,258103,78.00,3,
680,234422,258103,78.00,3,
681,234422,258103,78.00,3,
682,234422,258103,78.00,3,
683,234422,258103,78.00,3,
684,234422,258103,78.00,3,
685,234422,258103,78.00,3,
686,234422,258103,78.00,3,
687,234422,258103,78.00,3,
688,234422,258103,78.00,3,
689,234422,258103,78.00,3,
690,234422,258103,78.00,3,
691,234422,258103,78.00,3,
692,234422,258103,78.00,3,
693,234422,258103,78.00,3,
694,234422,258103,78.00,3,
695,234422,258103,78.00,3,
696,234422,258103,78.00,3,
697,234422,258103,78.00,3,
698,234422,258103,78.00,3,
699,234422,258103,78.00,3,
700,234422,258103,78.00,3,
701,234422,258103,78.00,3,
702,234422,258103,78.00,3,
703,234422,258103,78.00,3,
704,234422,258103,78.00,3,
705,234422,258103,78.00,3,
706,234422,258103,78.00,3,
707,234422,258103,78.00,3,
708,234422,258103,78.00,3,
709,234422,258103,78.00,3,
710,234422,258103,78.00,3,
711,234422,258103,78.00,3,
712,234422,258103,78.00,3,
713,234422,258103,78.00,3,
714,234422,258103,78.00,3,
715,234422,258103,78.00,3,
716,234422,258103,78.00,3,
717,234422,258103,78.00,3,
718,234422,258103,78.00,3,
719,234422,258103,78.00,3,
720,234422,258103,78.00,3,
721,234422,258103,78.00,3,
722,234422,258103,78.00,3,
723,234422,258103,78.00,3,
724,234422,258103,78.00,3,
725,234422,258103,78.00,3,
726,234422,258103,78.00,3,
727,234422,258103,78.00,3,
728,234422,258103,78.00,3,
729,234422,258103,78.00,3,
730,234422,258103,78.00,3,
731,234422,258103,78.00,3,
732,234422,258103,78.00,3,
733,234422,258103,78.00,3,
734,234422,258103,78.00,3,
735,234422,258103,78.00,3,
736,234422,258103,78.00,3,
737,234422,258103,78.00,3,
738,234422,258103,78.00,3,
739,234422,258103,78.00,3,
740,234422,258103,78.00,3,
741,234422,258103,78.00,3,
742,234422,258103,78.00,3,
743,234422,258103,78.00,3,
744,234422,258103,78.00,3,
745,234422,258103,78.00,3,
746,234422,258103,78.00,3,
747,234422,258103,78.00,3,
748,234422,258103,78.00,3,
749,234422,258103,78.00,3,
750,234422,258103,78.00,3,
751,234422,258103,78.00,3,
752,234422,258103,78.00,3,
753,234422,258103,78.00,3,
754,234422,258103,78.00,3,
755,234422,258103,78.00,3,
756,234422,258103,78.00,3,
757,234422,258103,78.00,3,
758,234422,258103,78.00,3,
759,234422,258103,78.00,3,
760,234422,258103,78.00,3,
761,234422,258103,78.00,3,
762,234422,258103,78.00,3,
763,234422,258103,78.00,3,
764,234422,258103,78.00,3,
765,234422,258103,78.00,3,
766,234422,258103,78.00,3,
767,234422,258103,78.00,3,
768,234422,258103,78.00,3,
769,234422,258103,78.00,3,
770,234422,258103,78.00,3,
771,234422,258103,78.00,3,
772,234422,258103,78.00,3,
773,234422,258103,78.00,3,
774,234422,258103,78.00,3,
775,234422,258103,78.00,3,
776,234422,258103,78.00,3,
777,234422,258103,78.00,3,
778,234422,258103,78.00,3,
779,234422,258103,78.00,3,
780,234422,258103,78.00,3,
781,234422,258103,78.00,3,
782,234422,258103,78.00,3,
783,234422,258103,78.00,3,
784,234422,258103,78.00,3,
785,234422,258103,78.00,3,
786,234422,258103,78.00,3,
787,234422,258103,78.00,3,
788,234422,258103,78.00,3,
789,234422,258103,78.00,3,
790,234422,258103,78.00,3,
791,234422,258103,78.00,3,
792,234422,258103,78.00,3,
793,234422,258103,78.00,3,
794,234422,258103,78.00,3,
795,234422,258103,78.00,3,
796,234422,258103,78.00,3,
797,234422,258103,78.00,3,
798,234422,258103,78.00,3,
799,234422,258103,78.00,3,
800,234422,258103,78.00,3,
801,234422,258103,78.00,3,
802,234422,258103,78.00,3,
803,234422,258103,78.00,3,
804,234422,258103,78.00,3,
805,234422,258103,78.00,3,
806,234422,258103,78.00,3,
807,234422,258103,78.00,3,
808,234422,258103,78.00,3,
809,234422,258103,78.00,3,
810,234422,258103,78.00,3,
811,234422,258103,78.00,3,
812,234422,258103,78.00,3,
813,234422,258103,78.00,3,
814,234422,258103,78.00,3,
815,234422,258103,78.00,3,
816,234422,258103,78.00,3,
817,234422,258103,78.00,3,
818,234422,258103,78.00,3,
819,234422,258103,78.00,3,
820,234422,258103,78.00,3,
821,234422,258103,78.00,3,
822,234422,258103,78.00,3,
823,234422,258103,78.00,3,
824,234422,258103,78.00,3,
825,234422,258103,78.00,3,
826,234422,258103,78.00,3,
827,234422,258103,78.00,3,
828,234422,258103,78.00,3,
829,234422,258103,78.00,3,
830,234422,258103,78.00,3,
831,234422,258103,78.00,3,
832,234422,258103,78.00,3,
833,234422,258103,78.00,3,
834,234422,258103,78.00,3,
835,234422,258103,78.00,3,
836,234422,258103,78.00,3,
837,234422,258103,78.00,3,
838,234422,258103,78.00,3,
839,234422,258103,78.00,3,
840,234422,258103,78.00,3,
841,234422,258103,78.00,3,
842,234422,258103,78.00,3,
843,234422,258103,78.00,3,
844,234422,258103,78.00,3,
845,234422,258103,78.00,3,
846,234422,258103,78.00,3,
847,234422,258103,78.00,3,
848,234422,258103,78.00,3,
849,234422,258103,78.00,3,
850,234422,258103,78.00,3,
851,234422,258103,78.00,3,
852,234422,258103,78.00,3,
853,234422,258103,78.00,3,
854,234422,258103,78.00,3,
855,234422,258103,78.00,3,
856,234422,258103,78.00,3,
857,234422,258103,78.00,3,
858,234422,258103,78.00,3,
859,234422,258103,78.00,3,
860,234422,258103,78.00,3,
861,234422,258103,78.00,3,
862,234422,258103,78.00,3,
863,234422,258103,78.00,3,
864,234422,258103,78.00,3,
865,234422,258103,78.00,3,
866,234422,258103,78.00,3,
867,234422,258103,78.00,3,
868,234422,258103,78.00,3,
869,234422,258103,78.00,3,
870,234422,258103,78.00,3,
871,234422,258103,78.00,3,
872,234422,258103,78.00,3,
873,234422,258103,78.00,3,
874,234422,258103,78.00,3,
875,234422,258103,78.00,3,
876,234422,258103,78.00,3,
877,234422,258103,78.00,3,
878,234422,258103,78.00,3,
879,234422,258103,78.00,3,
880,234422,258103,78.00,3,
881,234422,258103,78.00,3,
882,234422,258103,78.00,3,
883,234422,258103,78.00,3,
884,234422,258103,78.00,3,
885,234422,258103,78.00,3,
886,234422,258103,78.00,3,
887,234422,258103,78.00,3,
888,234422,258103,78.00,3,
889,234422,258103,78.00,3,
890,234422,258103,78.00,3,
891,234422,258103,78.00,3,
892,234422,258103,78.00,3,
893,234422,258103,78.00,3,
894,234422,258103,78.00,3,
895,234422,258103,78.00,3,
896,234422,258103,78.00,3,
897,234422,258103,78.00,3,
898,234422,258103,78.00,3,
899,234422,258103,78.00,3,
900,234422,258103,78.00,3,
901,234422,258103,78.00,3,
902,234422,258103,78.00,3,
903,234422,258103,78.00,3,
904,234422,258103,78.00,3,
905,234422,258103,78.00,3,
906,234422,258103,78.00,3,
907,234422,258103,78.00,3,
908,234422,258103,78.00,3,
909,234422,258103,78.00,3,
910,234422,258103,78.00,3,
911,234422,258103,78.00,3,
912,234422,258103,78.00,3,
913,234422,258103,78.00,3,
914,234422,258103,78.00,3,
915,234422,258103,78.00,3,
916,234422,258103,78.00,3,
917,234422,258103,78.00,3,
918,234422,258103,78.00,3,
919,234422,258103,78.00,3,
920,234422,258103,78.00,3,
921,234422,258103,78.00,3,
922,234422,258103,78.00,3,
923,234422,258103,78.00,3,
924,234422,258103,78.00,3,
925,234422,258103,78.00,3,
926,234422,258103,78.00,3,
927,234422,258103,78.00,3,
928,234422,258103,78.00,3,
929,234422,258103,78.00,3,
930,234422,258103,78.00,3,
931,234422,258103,78.00,3,
932,234422,258103,78.00,3,
933,234422,258103,78.00,3,
934,234422,258103,78.00,3,
935,234422,258103,78.00,3,
936,234422,258103,78.00,3,
937,234422,258103,78.00,3,
938,234422,258103,78.00,3,
939,234422,258103,78.00,3,
940,234422,258103,78.00,3,
941,234422,258103,78.00,3,
942,234422,258103,78.00,3,
943,234422,258103,78.00,3,
944,234422,258103,78.00,3,
945,234422,258103,78.00,3,
946,234422,258103,78.00,3,
947,234422,258103,78.00,3,
948,234422,258103,78.00,3,
949,234422,258103,78.00,3,
950,234422,258103,78.00,3,
951,234422,258103,78.00,3,
952,234422,258103,78.00,3,
953,234422,258103,78.00,3,
954,234422,258103,78.00,3,
955,234422,258103,78.00,3,
956,234422,258103,78.00,3,
957,234422,258103,78.00,3,
958,234422,258103,78.00,3,
959,234422,258103,78.00,3,
960,234422,258103,78.00,3,
961,234422,258103,78.00,3,
962,234422,258103,78.00,3,
963,234422,258103,78.00,3,
964,234422,258103,78.00,3,
965,234422,258103,78.00,3,
966,234422,258103,78.00,3,
967,234422,258103,78.00,3,
968,234422,258103,78.00,3,
969,234422,258103,78.00,3,
970,234422,258103,78.00,3,
971,234422,258103,78.00,3,
972,234422,258103,78.00,3,
973,234422,258103,78.00,3,
974,234422,258103,78.00,3,
975,234422,258103,78.00,3,
976,234422,258103,78.00,3,
977,234422,258103,78.00,3,
978,234422,258103,78.00,3,
979,234422,258103,78.00,3,
980,234422,258103,78.00,3,
981,234422,258103,78.00,3,
982,234422,258103,78.00,3,
983,234422,258103,78.00,3,
984,234422,258103,78.00,3,
985,234422,258103,78.00,3,
986,234422,258103,78.00,3,
987,234422,258103,78.00,3,
988,234422,258103,109.20,3,
989,234422,258103,78.00,3,
990,234422,258103,78.00,3,
991,234422,258103,78.00,3,
992,234422,258103,78.00,3,
993,234422,258103,78.00,3,
994,234422,258103,78.00,3,
995,234422,258103,78.00,3,
996,234422,258103,78.00,3,
997,234422,258103,78.00,3,
998,234422,258103,78.00,3,
999,234422,258103,78.00,3,
1000,234422,258103,78.00,3,
1001,234422,258103,78.00,3,
1002,234422,258103,78.00,3,
1003,234422,258103,78.00,3,
1004,234422,258103,78.00,3,
1005,234422,258103,78.00,3,
1006,234422,258103,78.00,3,
1007,234422,258103,78.00,3,
1008,234422,258103,78.00,3,
1009,234422,258103,78.00,3,
1010,234422,258103,78.00,3,
1011,234422,258103,78.00,3,
1012,234422,258103,78.00,3,
1013,234422,258103,78.00,3,
1014,234422,258103,78.00,3,
1015,234422,258103,78.00,3,
1016,234422,258103,78.00,3,
1017,234422,258103,78.00,3,
1018,234422,258103,78.00,3,
1019,234422,258103,78.00,3,
1020,234422,258103,78.00,3,
1021,234422,258103,78.00,3,
1022,234422,258103,78.00,3,
1023,234422,258103,78.00,3,
1024,234422,258103,78.00,3,
1025,234422,258103,78.00,3,
1026,234422,258103,78.00,3,
1027,234422,258103,78.00,3,
1028,234422,258103,78.00,3,
1029,234422,258103,78.00,3,
1030,234422,258103,78.00,3,
1031,234422,258103,78.00,3,
1032,234422,258103,78.00,3,
1033,234422,258103,78.00,3,
1034,234422,258103,78.00,3,
1035,234422,258103,78.00,3,
1036,234422,258103,78.00,3,
1037,234422,258103,78.00,3,
1038,234422,258103,78.00,3,
1039,234422,258103,78.00,3,
1040,234422,258103,78.00,3,
1041,234422,258103,78.00,3,
1042,234422,258103,78.00,3,
1043,234422,258103,78.00,3,
1044,234422,258103,78.00,3,
1045,234422,258103,78.00,3,
1046,234422,258103,78.00,3,
1047,234422,258103,78.00,3,
1048,234422,258103,78.00,3,
1049,234422,258103,78.00,3,
1050,234422,258103,78.00,3,
1051,234422,258103,78.00,3,
1052,234422,258103,78.00,3,
1053,234422,258103,78.00,3,
1054,234422,258103,78.00,3,
1055,234422,258103,78.00,3,
1056,234422,258103,78.00,3,
1057,234422,258103,78.00,3,
1058,234422,258103,78.00,3,
1059,234422,258103,78.00,3,
1060,234422,258103,78.00,3,
1061,234422,258103,78.00,3,
1062,234422,258103,78.00,3,
1063,234422,258103,78.00,3,
1064,234422,258103,78.00,3,
1065,234422,258103,78.00,3,
1066,234422,258103,78.00,3,
1067,234422,258103,78.00,3,
1068,234422,258103,78.00,3,
1069,234422,258103,78.00,3,
1070,234422,258103,78.00,3,
1071,234422,258103,78.00,3,
1072,234422,258103,78.00,3,
1073,234422,258103,78.00,3,
1074,234422,258103,78.00,3,
1075,234422,258103,78.00,3,
1076,234422,258103,78.00,3,
1077,234422,258103,78.00,3,
1078,234422,258103,78.00,3,
1079,234422,258103,78.00,3,
1080,234422,258103,78.00,3,
1081,234422,258103,78.00,3,
1082,234422,258103,78.00,3,
1083,234422,258103,78.00,3,
1084,234422,258103,78.00,3,
1085,234422,258103,78.00,3,
1086,234422,258103,78.00,3,
1087,234422,258103,78.00,3,
1088,234422,258103,78.00,3,
1089,234422,258103,78.00,3,
1090,234422,258103,78.00,3,
1091,234422,258103,78.00,3,
1092,234422,258103,78.00,3,
1093,234422,258103,78.00,3,
1094,234422,258103,78.00,3,
1095,234422,258103,78.00,3,
1096,234422,258103,78.00,3,
1097,234422,258103,78.00,3,
1098,234422,258103,78.00,3,
1099,234422,258103,78.00,3,
1100,234422,258103,78.00,3,
1101,234422,258103,78.00,3,
1102,234422,258103,78.00,3,
1103,234422,258103,78.00,3,
1104,234422,258103,78.00,3,
1105,234422,258103,78.00,3,
1106,234422,258103,78.00,3,
1107,234422,258103,78.00,3,
1108,234422,258103,78.00,3,
1109,234422,258103,78.00,3,
1110,234422,258103,78.00,3,
1111,234422,258103,78.00,3,
1112,234422,258103,78.00,3,
1113,234422,258103,78.00,3,
1114,234422,258103,78.00,3,
1115,234422,258103,78.00,3,
1116,234422,258103,78.00,3,
1117,234422,258103,78.00,3,
1118,234422,258103,78.00,3,
1119,234422,258103,78.00,3,
1120,234422,258103,78.00,3,
1121,234422,258103,78.00,3,
1122,234422,258103,78.00,3,
1123,234422,258103,78.00,3,
1124,234422,258103,78.00,3,
1125,234422,258103,78.00,3,
1126,234422,258103,78.00,3,
1127,234422,258103,78.00,3,
1128,234422,258103,78.00,3,
1129,234422,258103,78.00,3,
1130,234422,258103,78.00,3,
1131,234422,258103,78.00,3,
1132,234422,258103,78.00,3,
1133,234422,258103,78.00,3,
1134,234422,258103,78.00,3,
1135,234422,258103,78.00,3,
1136,234422,258103,78.00,3,
1137,234422,258103,78.00,3,
1138,234422,258103,78.00,3,
1139,234422,258103,78.00,3,
1140,234422,258103,78.00,3,
1141,234422,258103,78.00,3,
1142,234422,258103,78.00,3,
1143,234422,258103,78.00,3,
1144,234422,258103,78.00,3,
1145,234422,258103,78.00,3,
1146,234422,258103,78.00,3,
1147,234422,258103,78.00,3,
1148,234422,258103,78.00,3,
1149,234422,258103,78.00,3,
1150,234422,258103,78.00,3,
1151,234422,258103,78.00,3,
1152,234422,258103,78.00,3,
1153,234422,258103,78.00,3,
1154,234422,258103,78.00,3,
1155,234422,258103,78.00,3,
1156,234422,258103,78.00,3,
1157,234422,258103,78.00,3,
1158,234422,258103,78.00,3,
1159,234422,258103,78.00,3,
1160,234422,258103,78.00,3,
1161,234422,258103,78.00,3,
1162,234422,258103,78.00,3,
1163,234422,258103,78.00,3,
1164,234422,258103,78.00,3,
1165,234422,258103,78.00,3,
1166,234422,258103,78.00,3,
1167,234422,258103,78.00,3,
1168,234422,258103,78.00,3,
1169,234422,258103,78.00,3,
1170,234422,258103,78.00,3,
1171,234422,258103,78.00,3,
1172,234422,258103,78.00,3,
1173,234422,258103,78.00,3,
1174,234422,258103,78.00,3,
1175,234422,258103,78.00,3,
1176,234422,258103,78.00,3,
1177,234422,258103,78.00,3,
1178,234422,258103,78.00,3,
1179,234422,258103,78.00,3,
1180,234422,258103,78.00,3,
1181,234422,258103,78.00,3,
1182,234422,258103,78.00,3,
1183,234422,258103,78.00,3,
1184,234422,258103,78.00,3,
1185,234422,258103,78.00,3,
1186,234422,258103,78.00,3,
1187,234422,258103,78.00,3,
1188,234422,258103,78.00,3,
1189,234422,258103,78.00,3,
1190,234422,258103,78.00,3,
1191,234422,258103,78.00,3,
1192,234422,258103,78.00,3,
1193,234422,258103,78.00,3,
1194,234422,258103,78.00,3,
1195,234422,258103,78.00,3,
1196,234422,258103,78.00,3,
1197,234422,258103,78.00,3,
1198,234422,258103,78.00,3,
1199,234422,258103,78.00,3,
1200,234422,258103,78.00,3,
1201,234422,258103,78.00,3,
1202,234422,258103,78.00,3,
1203,234422,258103,78.00,3,
1204,234422,258103,78.00,3,
1205,234422,258103,78.00,3,
1206,234422,258103,78.00,3,
1207,234422,258103,78.00,3,
1208,234422,258103,78.00,3,
1209,234422,258103,78.00,3,
1210,234422,258103,78.00,3,
1211,234422,258103,78.00,3,
1212,234422,258103,78.00,3,
1213,234422,258103,78.00,3,
1214,234422,258103,78.00,3,
1215,234422,258103,78.00,3,
1216,234422,258103,78.00,3,
1217,234422,258103,78.00,3,
1218,234422,258103,78.00,3,
1219,234422,258103,78.00,3,
1220,234422,258103,78.00,3,
1221,234422,258103,78.00,3,
1222,234422,258103,78.00,3,
1223,234422,258103,78.00,3,
1224,234422,258103,78.00,3,
1225,234422,258103,78.00,3,
1226,234422,258103,78.00,3,
1227,234422,258103,78.00,3,
1228,234422,258103,78.00,3,
1229,234422,258103,78.00,3,
1230,234422,258103,78.00,3,
1231,234422,258103,78.00,3,
1232,234422,258103,78.00,3,
1233,234422,258103,78.00,3,
1234,234422,258103,78.00,3,
1235,234422,258103,78.00,3,
1236,234422,258103,78.00,3,
1237,234422,258103,78.00,3,
1238,234422,258103,78.00,3,
1239,234422,258103,78.00,3,
1240,234422,258103,78.00,3,
1241,234422,258103,78.00,3,
1242,234422,258103,78.00,3,
1243,234422,258103,78.00,3,
1244,234422,258103,78.00,3,
1245,234422,258103,78.00,3,
1246,234422,258103,78.00,3,
1247,234422,258103,78.00,3,
1248,234422,258103,78.00,3,
1249,234422,258103,78.00,3,
1250,234422,258103,78.00,3,
1251,234422,258103,78.00,3,
1252,234422,258103,78.00,3,
1253,234422,258103,78.00,3,
1254,234422,258103,78.00,3,
1255,234422,258103,78.00,3,
1256,234422,258103,78.00,3,
1257,234422,258103,78.00,3,
1258,234422,258103,78.00,3,
1259,234422,258103,78.00,3,
1260,234422,258103,78.00,3,
1261,234422,258103,78.00,3,
1262,234422,258103,78.00,3,
1263,234422,258103,78.00,3,
1264,234422,258103,78.00,3,
1265,234422,258103,78.00,3,
1266,234422,258103,78.00,3,
1267,234422,258103,78.00,3,
1268,234422,258103,78.00,3,
1269,234422,258103,78.00,3,
1270,234422,258103,78.00,3,
1271,234422,258103,78.00,3,
1272,234422,258103,78.00,3,
1273,234422,258103,78.00,3,
1274,234422,258103,78.00,3,
1275,234422,258103,78.00,3,
1276,234422,258103,78.00,3,
1277,234422,258103,78.00,3,
1278,234422,258103,78.00,3,
1279,234422,258103,78.00,3,
1280,234422,258103,78.00,3,
1281,234422,258103,78.00,3,
1282,234422,258103,78.00,3,
1283,234422,258103,78.00,3,
1284,234422,258103,78.00,3,
1285,234422,258103,78.00,3,
1286,234422,258103,78.00,3,
1287,234422,258103,78.00,3,
1288,234422,258103,78.00,3,
1289,234422,258103,78.00,3,
1290,234422,258103,78.00,3,
1291,234422,258103,78.00,3,
1292,234422,258103,78.00,3,
1293,234422,258103,78.00,3,
1294,234422,258103,78.00,3,
1295,234422,258103,78.00,3,
1296,234422,258103,78.00,3,
1297,234422,258103,78.00,3,
1298,234422,258103,78.00,3,
1299,234422,258103,78.00,3,
1300,234422,258103,78.00,3,
1301,234422,258103,78.00,3,
1302,234422,258103,78.00,3,
1303,234422,258103,78.00,3,
1304,234422,258103,78.00,3,
1305,234422,258103,78.00,3,
1306,234422,258103,78.00,3,
1307,234422,258103,78.00,3,
1308,234422,258103,78.00,3,
1309,234422,258103,78.00,3,
1310,234422,258103,78.00,3,
1311,234422,258103,78.00,3,
1312,234422,258103,78.00,3,
1313,234422,258103,78.00,3,
1314,234422,258103,78.00,3,
1315,234422,258103,78.00,3,
1316,234422,258103,78.00,3,
1317,234422,258103,78.00,3,
1318,234422,258103,78.00,3,
1319,234422,258103,78.00,3,
1320,234422,258103,78.00,3,
1321,234422,258103,78.00,3,
1322,234422,258103,78.00,3,
1323,234422,258103,78.00,3,
1324,234422,258103,78.00,3,
1325,234422,258103,78.00,3,
1326,234422,258103,78.00,3,
1327,234422,258103,78.00,3,
1328,234422,258103,78.00,3,
1329,234422,258103,78.00,3,
1330,234422,258103,78.00,3,
1331,234422,258103,78.00,3,
1332,234422,258103,78.00,3,
1333,234422,258103,78.00,3,
1334,234422,258103,78.00,3,
1335,234422,258103,78.00,3,
1336,234422,258103,78.00,3,
1337,234422,258103,78.00,3,
1338,234422,258103,78.00,3,
1339,234422,258103,78.00,3,
1340,234422,258103,78.00,3,
1341,234422,258103,78.00,3,
1342,234422,258103,78.00,3,
1343,234422,258103,78.00,3,
1344,234422,258103,78.00,3,
1345,234422,258103,78.00,3,
1346,234422,258103,78.00,3,
1347,234422,258103,78.00,3,
1348,234422,258103,78.00,3,
1349,234422,258103,78.00,3,
1350,234422,258103,78.00,3,
1351,234422,258103,78.00,3,
1352,234422,258103,78.00,3,
1353,234422,258103,78.00,3,
1354,234422,258103,78.00,3,
1355,234422,258103,78.00,3,
1356,234422,258103,78.00,3,
1357,234422,258103,78.00,3,
1358,234422,258103,78.00,3,
1359,234422,258103,78.00,3,
1360,234422,258103,78.00,3,
1361,234422,258103,78.00,3,
1362,234422,258103,78.00,3,
1363,234422,258103,78.00,3,
1364,234422,258103,78.00,3,
1365,234422,258103,78.00,3,
1366,234422,258103,78.00,3,
1367,234422,258103,78.00,3,
1368,234422,258103,78.00,3,
1369,234422,258103,78.00,3,
1370,234422,258103,78.00,3,
1371,234422,258103,78.00,3,
1372,234422,258103,78.00,3,
1373,234422,258103,78.00,3,
1374,234422,258103,78.00,3,
1375,234422,258103,78.00,3,
1376,234422,258103,78.00,3,
1377,234422,258103,78.00,3,
1378,234422,258103,78.00,3,
1379,234422,258103,78.00,3,
1380,234422,258103,78.00,3,
1381,234422,258103,78.00,3,
1382,234422,258103,78.00,3,
1383,234422,258103,78.00,3,
1384,234422,258103,78.00,3,
1385,234422,258103,78.00,3,
1386,234422,258103,78.00,3,
1387,234422,258103,78.00,3,
1388,234422,258103,78.00,3,
1389,234422,258103,78.00,3,
1390,234422,258103,78.00,3,
1391,234422,258103,78.00,3,
1392,234422,258103,78.00,3,
1393,234422,258103,78.00,3,
1394,234422,258103,78.00,3,
1395,234422,258103,78.00,3,
1396,234422,258103,78.00,3,
1397,234422,258103,78.00,3,
1398,234422,258103,78.00,3,
1399,234422,258103,78.00,3,
1400,234422,258103,78.00,3,
1401,234422,258103,78.00,3,
1402,234422,258103,78.00,3,
1403,234422,258103,78.00,3,
1404,234422,258103,78.00,3,
1405,234422,258103,78.00,3,
1406,234422,258103,78.00,3,
1407,234422,258103,78.00,3,
1408,234422,258103,78.00,3,
1409,234422,258103,78.00,3,
1410,234422,258103,78.00,3,
1411,234422,258103,78.00,3,
1412,234422,258103,78.00,3,
1413,234422,258103,78.00,3,
1414,234422,258103,78.00,3,
1415,234422,258103,78.00,3,
1416,234422,258103,78.00,3,
1417,234422,258103,78.00,3,
1418,234422,258103,78.00,3,
1419,234422,258103,78.00,3,
1420,234422,258103,78.00,3,
1421,234422,258103,78.00,3,
1422,234422,258103,78.00,3,
1423,234422,258103,78.00,3,
1424,234422,258103,78.00,3,
1425,234422,258103,78.00,3,
1426,234422,258103,78.00,3,
1427,234422,258103,78.00,3,
1428,234422,258103,78.00,3,
1429,234422,258103,78.00,3,
1430,234422,258103,78.00,3,
1431,234422,258103,78.00,3,
1432,234422,258103,78.00,3,
1433,234422,258103,78.00,3,
1434,234422,258103,78.00,3,
1435,234422,258103,78.00,3,
1436,234422,258103,78.00,3,
1437,234422,258103,78.00,3,
1438,234422,258103,78.00,3,
1439,234422,258103,78.00,3,
1440,234422,258103,78.00,3,
1441,234422,258103,78.00,3,
1442,234422,258103,78.00,3,
1443,234422,258103,78.00,3,
1444,234422,258103,78.00,3,
1445,234422,258103,78.00,3,
1446,234422,258103,78.00,3,
1447,234422,258103,78.00,3,
1448,234422,258103,78.00,3,
1449,234422,258103,78.00,3,
1450,234422,258103,78.00,3,
1451,234422,258103,78.00,3,
1452,234422,258103,78.00,3,
1453,234422,258103,78.00,3,
1454,234422,258103,78.00,3,
1455,234422,258103,78.00,3,
1456,234422,258103,78.00,3,
1457,234422,258103,78.00,3,
1458,234422,258103,78.00,3,
1459,234422,258103,78.00,3,
1460,234422,258103,78.00,3,
1461,234422,258103,78.00,3,
1462,234422,258103,78.00,3,
1463,234422,258103,78.00,3,
1464,234422,258103,78.00,3,
1465,234422,258103,78.00,3,
1466,234422,258103,78.00,3,
1467,234422,258103,78.00,3,
1468,234422,258103,78.00,3,
1469,234422,258103,78.00,3,
1470,234422,258103,78.00,3,
1471,234422,258103,78.00,3,
1472,234422,258103,78.00,3,
1473,234422,258103,78.00,3,
1474,234422,258103,78.00,3,
1475,234422,258103,78.00,3,
1476,234422,258103,78.00,3,
1477,234422,258103,78.00,3,
1478,234422,258103,78.00,3,
1479,234422,258103,78.00,3,
1480,234422,258103,78.00,3,
1481,234422,258103,78.00,3,
1482,234422,258103,78.00,3,
1483,234422,258103,78.00,3,
1484,234422,258103,78.00,3,
1485,234422,258103,78.00,3,
1486,234422,258103,78.00,3,
1487,234422,258103,78.00,3,
1488,234422,258103,78.00,3,
1489,234422,258103,78.00,3,
1490,234422,258103,78.00,3,
1491,234422,258103,78.00,3,
1492,234422,258103,78.00,3,
1493,234422,258103,78.00,3,
1494,234422,258103,78.00,3,
1495,234422,258103,78.00,3,
1496,234422,258103,78.00,3,
1497,234422,258103,78.00,3,
1498,234422,258103,78.00,3,
1499,234422,258103,78.00,3,
1500,234422,258103,78.00,3,
1501,234422,258103,78.00,3,
1502,234422,258103,78.00,3,
1503,234422,258103,78.00,3,
1504,234422,258103,78.00,3,
1505,234422,258103,78.00,3,
1506,234422,258103,78.00,3,
1507,234422,258103,78.00,3,
1508,234422,258103,78.00,3,
1509,234422,258103,78.00,3,
1510,234422,258103,78.00,3,
1511,234422,258103,78.00,3,
1512,234422,258103,78.00,3,
1513,234422,258103,78.00,3,
1514,234422,258103,78.00,3,
1515,234422,258103,78.00,3,
1516,234422,258103,78.00,3,
1517,234422,258103,78.00,3,
1518,234422,258103,78.00,3,
1519,234422,258103,78.00,3,
1520,234422,258103,78.00,3,
1521,234422,258103,78.00,3,
1522,234422,258103,78.00,3,
1523,234422,258103,78.00,3,
1524,234422,258103,78.00,3,
1525,234422,258103,78.00,3,
1526,234422,258103,78.00,3,
1527,234422,258103,78.00,3,
1528,234422,258103,78.00,3,
1529,234422,258103,78.00,3,
1530,234422,258103,78.00,3,
1531,234422,258103,78.00,3,
1532,234422,258103,78.00,3,
1533,234422,258103,78.00,3,
1534,234422,258103,78.00,3,
1535,234422,258103,78.00,3,
1536,234422,258103,78.00,3,
1537,234422,258103,78.00,3,
1538,234422,258103,78.00,3,
1539,234422,258103,78.00,3,
1540,234422,258103,78.00,3,
1541,234422,258103,78.00,3,
1542,234422,258103,78.00,3,
1543,234422,258103,78.00,3,
1544,234422,258103,78.00,3,
1545,234422,258103,78.00,3,
1546,234422,258103,78.00,3,
1547,234422,258103,78.00,3,
1548,234422,258103,78.00,3,
1549,-3,0,265.21,3,
1550,234422,258103,109.20,3,
1551,234422,258103,78.00,3,
1552,234422,258103,78.00,3,
1553,234422,258103,78.00,3,
1554,234422,258103,78.00,3,
1555,234422,258103,78.00,3,
1556,234422,258103,78.00,3,
1557,234422,258103,78.00,3,
1558,234422,258103,78.00,3,
1559,234422,258103,78.00,3,
1560,234422,258103,78.00,3,
1561,234422,258103,78.00,3,
1562,234422,258103,78.00,3,
1563,234422,258103,78.00,3,
1564,234422,258103,78.00,3,
1565,234422,258103,78.00,3,
1566,234422,258103,78.00,3,
1567,234422,258103,78.00,3,
1568,234422,258103,78.00,3,
1569,234422,258103,78.00,3,
1570,234422,258103,78.00,3,
1571,234422,258103,78.00,3,
1572,234422,258103,78.00,3,
1573,234422,258103,78.00,3,
1574,234422,258103,78.00,3,
1575,234422,258103,78.00,3,
1576,234422,258103,78.00,3,
1577,234422,258103,78.00,3,
1578,234422,258103,78.00,3,
1579,234422,258103,78.00,3,
1580,234422,258103,78.00,3,
1581,234422,258103,78.00,3,
1582,234422,258103,78.00,3,
1583,234422,258103,78.00,3,
1584,234422,258103,78.00,3,
1585,234422,258103,78.00,3,
1586,234422,258103,78.00,3,
1587,234422,258103,78.00,3,
1588,234422,258103,78.00,3,
1589,234422,258103,78.00,3,
1590,234422,258103,78.00,3,
1591,234422,258103,78.00,3,
1592,234422,258103,78.00,3,
1593,234422,258103,78.00,3,
1594,234422,258103,78.00,3,
1595,234422,258103,78.00,3,
1596,234422,258103,78.00,3,
1597,234422,258103,78.00,3,
1598,234422,258103,78.00,3,
1599,234422,258103,78.00,3,
1600,234422,258103,78.00,3,
1601,234422,258103,78.00,3,
1602,234422,258103,78.00,3,
1603,234422,258103,78.00,3,
1604,234422,258103,78.00,3,
1605,234422,258103,78.00,3,
1606,234422,258103,78.00,3,
1607,234422,258103,78.00,3,
1608,234422,258103,78.00,3,
1609,234422,258103,78.00,3,
1610,234422,258103,78.00,3,
1611,234422,258103,78.00,3,
1612,234422,258103,78.00,3,
1613,234422,258103,78.00,3,
1614,234422,258103,78.00,3,
1615,234422,258103,78.00,3,
1616,234422,258103,78.00,3,
1617,234422,258103,78.00,3,
1618,234422,258103,78.00,3,
1619,234422,258103,78.00,3,
1620,234422,258103,78.00,3,
1621,234422,258103,78.00,3,
1622,234422,258103,78.00,3,
1623,234422,258103,78.00,3,
1624,234422,258103,78.00,3,
1625,234422,258103,78.00,3,
1626,234422,258103,78.00,3,
1627,234422,258103,78.00,3,
1628,234422,258103,78.00,3,
1629,234422,258103,78.00,3,
1630,234422,258103,78.00,3,
1631,234422,258103,78.00,3,
1632,234422,258103,78.00,3,
1633,234422,258103,78.00,3,
1634,234422,258103,78.00,3,
1635,234422,258103,78.00,3,
1636,234422,258103,78.00,3,
1637,234422,258103,78.00,3,
1638,234422,258103,78.00,3,
1639,234422,258103,78.00,3,
1640,234422,258103,78.00,3,
1641,234422,258103,78.00,3,
1642,234422,258103,78.00,3,
1643,234422,258103,78.00,3,
1644,234422,258103,78.00,3,
1645,234422,258103,78.00,3,
1646,234422,258103,78.00,3,
1647,234422,258103,78.00,3,
1648,234422,258103,78.00,3,
1649,234422,258103,78.00,3,
1650,234422,258103,78.00,3,
1651,234422,258103,78.00,3,
1652,234422,258103,78.00,3,
1653,234422,258103,78.00,3,
1654,234422,258103,78.00,3,
1655,234422,258103,78.00,3,
1656,234422,258103,78.00,3,
1657,234422,258103,78.00,3,
1658,234422,258103,78.00,3,
1659,234422,258103,78.00,3,
1660,234422,258103,78.00,3,
1661,234422,258103,78.00,3,
1662,234422,258103,78.00,3,
1663,234422,258103,78.00,3,
1664,234422,258103,78.00,3,
1665,234422,258103,78.00,3,
1666,234422,258103,78.00,3,
1667,234422,258103,78.00,3,
1668,234422,258103,78.00,3,
1669,234422,258103,78.00,3,
1670,234422,258103,78.00,3,
1671,234422,258103,78.00,3,
1672,234422,258103,78.00,3,
1673,234422,258103,78.00,3,
1674,234422,258103,78.00,3,
1675,234422,258103,78.00,3,
1676,234422,258103,78.00,3,
1677,234422,258103,78.00,3,
1678,234422,258103,78.00,3,
1679,234422,258103,78.00,3,
1680,234422,258103,78.00,3,
1681,234422,258103,78.00,3,
1682,234422,258103,78.00,3,
1683,234422,258103,78.00,3,
1684,234422,258103,78.00,3,
1685,234422,258103,78.00,3,
1686,234422,258103,78.00,3,
1687,234422,258103,78.00,3,
1688,234422,258103,78.00,3,
1689,234422,258103,78.00,3,
1690,234422,258103,78.00,3,
1691,234422,258103,78.00,3,
1692,234422,258103,78.00,3,
1693,234422,258103,78.00,3,
1694,234422,258103,78.00,3,
1695,234422,258103,78.00,3,
1696,234422,258103,78.00,3,
1697,234422,258103,78.00,3,
1698,234422,258103,78.00,3,
1699,234422,258103,78.00,3,
1700,234422,258103,78.00,3,
1701,234422,258103,78.00,3,
1702,234422,258103,78.00,3,
1703,234422,258103,78.00,3,
1704,234422,258103,78.00,3,
1705,234422,258103,78.00,3,
1706,234422,258103,78.00,3,
1707,234422,258103,78.00,3,
1708,234422,258103,78.00,3,
1709,234422,258103,78.00,3,
1710,234422,258103,78.00,3,
1711,234422,258103,78.00,3,
1712,234422,258103,78.00,3,
1713,234422,258103,78.00,3,
1714,234422,258103,78.00,3,
1715,234422,258103,78.00,3,
1716,234422,258103,78.00,3,
1717,234422,258103,78.00,3,
1718,234422,258103,78.00,3,
1719,234422,258103,78.00,3,
1720,234422,258103,78.00,3,
1721,234422,258103,78.00,3,
1722,234422,258103,78.00,3,
1723,234422,258103,78.00,3,
1724,234422,258103,78.00,3,
1725,234422,258103,78.00,3,
1726,234422,258103,78.00,3,
1727,234422,258103,78.00,3,
1728,234422,258103,78.00,3,
1729,234422,258103,78.00,3,
1730,234422,258103,78.00,3,
1731,234422,258103,78.00,3,
1732,234422,258103,78.00,3,
1733,234422,258103,78.00,3,
1734,234422,258103,78.00,3,
1735,234422,258103,78.00,3,
1736,234422,258103,78.00,3,
1737,234422,258103,78.00,3,
1738,234422,258103,78.00,3,
1739,234422,258103,78.00,3,
1740,234422,258103,78.00,3,
1741,234422,258103,78.00,3,
1742,234422,258103,78.00,3,
1743,234422,258103,78.00,3,
1744,234422,258103,78.00,3,
1745,234422,258103,78.00,3,
1746,234422,258103,78.00,3,
1747,234422,258103,78.00,3,
1748,234422,258103,78.00,3,
1749,234422,258103,78.00,3,
1750,234422,258103,78.00,3,
1751,234422,258103,78.00,3,
1752,234422,258103,78.00,3,
1753,234422,258103,78.00,3,
1754,234422,258103,78.00,3,
1755,234422,258103,78.00,3,
1756,234422,258103,78.00,3,
1757,234422,258103,78.00,3,
1758,234422,258103,78.00,3,
1759,234422,258103,78.00,3,
1760,234422,258103,78.00,3,
1761,234422,258103,78.00,3,
1762,234422,258103,78.00,3,
1763,234422,258103,78.00,3,
1764,234422,258103,78.00,3,
1765,234422,258103,78.00,3,
1766,234422,258103,78.00,3,
1767,234422,258103,78.00,3,
1768,234422,258103,78.00,3,
1769,234422,258103,78.00,3,
1770,234422,258103,78.00,3,
1771,234422,258103,78.00,3,
1772,234422,258103,78.00,3,
1773,234422,258103,78.00,3,
1774,234422,258103,78.00,3,
1775,234422,258103,78.00,3,
1776,234422,258103,78.00,3,
1777,234422,258103,78.00,3,
1778,234422,258103,78.00,3,
1779,234422,258103,78.00,3,
1780,234422,258103,78.00,3,
1781,234422,258103,78.00,3,
1782,234422,258103,78.00,3,
1783,234422,258103,78.00,3,
1784,234422,258103,78.00,3,
1785,234422,258103,78.00,3,
1786,234422,258103,78.00,3,
1787,234422,258103,78.00,3,
1788,234422,258103,78.00,3,
1789,234422,258103,78.00,3,
1790,234422,258103,78.00,3,
1791,234422,258103,78.00,3,
1792,234422,258103,78.00,3,
1793,234422,258103,78.00,3,
1794,234422,258103,78.00,3,
1795,234422,258103,78.00,3,
1796,234422,258103,78.00,3,
1797,234422,258103,78.00,3,
1798,234422,258103,78.00,3,
1799,234422,258103,78.00,3,
1800,234422,258103,78.00,3,
1801,234422,258103,78.00,3,
1802,234422,258103,78.00,3,
1803,234422,258103,78.00,3,
1804,234422,258103,78.00,3,
1805,234422,258103,78.00,3,
1806,234422,258103,78.00,3,
1807,234422,258103,78.00,3,
1808,234422,258103,78.00,3,
1809,234422,258103,78.00,3,
1810,234422,258103,78.00,3,
1811,234422,258103,78.00,3,
1812,234422,258103,78.00,3,
1813,234422,258103,78.00,3,
1814,234422,258103,78.00,3,
1815,234422,258103,78.00,3,
1816,234422,258103,78.00,3,
1817,234422,258103,78.00,3,
1818,234422,258103,78.00,3,
1819,234422,258103,78.00,3,
1820,234422,258103,78.00,3,
1821,234422,258103,78.00,3,
1822,234422,258103,78.00,3,
1823,234422,258103,78.00,3,
1824,234422,258103,78.00,3,
1825,234422,258103,78.00,3,
1826,234422,258103,78.00,3,
1827,234422,258103,78.00,3,
1828,234422,258103,78.00,3,
1829,234422,258103,78.00,3,
1830,234422,258103,78.00,3,
1831,234422,258103,78.00,3,
1832,234422,258103,78.00,3,
1833,234422,258103,78.00,3,
1834,234422,258103,78.00,3,
1835,234422,258103,78.00,3,
1836,234422,258103,78.00,3,
1837,234422,258103,78.00,3,
1838,234422,258103,78.00,3,
1839,234422,258103,78.00,3,
1840,234422,258103,78.00,3,
1841,234422,258103,78.00,3,
1842,234422,258103,78.00,3,
1843,234422,258103,78.00,3,
1844,234422,258103,78.00,3,
1845,234422,258103,78.00,3,
1846,234422,258103,78.00,3,
1847,234422,258103,78.00,3,
1848,234422,258103,78.00,3,
1849,234422,258103,78.00,3,
1850,234422,258103,78.00,3,
1851,234422,258103,78.00,3,
1852,234422,258103,78.00,3,
1853,234422,258103,78.00,3,
1854,234422,258103,78.00,3,
1855,234422,258103,78.00,3,
1856,234422,258103,78.00,3,
1857,234422,258103,78.00,3,
1858,234422,258103,78.00,3,
1859,234422,258103,78.00,3,
1860,234422,258103,78.00,3,
1861,234422,258103,78.00,3,
1862,234422,258103,78.00,3,
1863,234422,258103,78.00,3,
1864,234422,258103,78.00,3,
1865,234422,258103,78.00,3,
1866,234422,258103,78.00,3,
1867,234422,258103,78.00,3,
1868,234422,258103,78.00,3,
1869,234422,258103,78.00,3,
1870,234422,258103,78.00,3,
1871,234422,258103,78.00,3,
1872,234422,258103,78.00,3,
1873,234422,258103,78.00,3,
1874,234422,258103,78.00,3,
1875,234422,258103,78.00,3,
1876,234422,258103,78.00,3,
1877,234422,258103,78.00,3,
1878,234422,258103,78.00,3,
1879,234422,258103,78.00,3,
1880,234422,258103,78.00,3,
1881,234422,258103,78.00,3,
1882,234422,258103,78.00,3,
1883,234422,258103,78.00,3,
1884,234422,258103,78.00,3,
1885,234422,258103,78.00,3,
1886,234422,258103,78.00,3,
1887,234422,258103,78.00,3,
1888,234422,258103,78.00,3,
1889,234422,258103,78.00,3,
1890,234422,258103,78.00,3,
1891,234422,258103,78.00,3,
1892,234422,258103,78.00,3,
1893,234422,258103,78.00,3,
1894,234422,258103,78.00,3,
1895,234422,258103,78.00,3,
1896,234422,258103,78.00,3,
1897,234422,258103,78.00,3,
1898,234422,258103,78.00,3,
1899,234422,258103,78.00,3,
1900,234422,258103,78.00,3,
1901,234422,258103,78.00,3,
1902,234422,258103,78.00,3,
1903,234422,258103,78.00,3,
1904,234422,258103,78.00,3,
1905,234422,258103,78.00,3,
1906,234422,258103,78.00,3,
1907,234422,258103,187.20,3,
1908,234422,258103,78.00,3,
1909,234422,258103,78.00,3,
1910,234422,258103,78.00,3,
1911,234422,258103,78.00,3,
1912,234422,258103,78.00,3,
1913,234422,258103,78.00,3,
1914,234422,258103,78.00,3,
1915,234422,258103,78.00,3,
1916,234422,258103,78.00,3,
1917,234422,258103,78.00,3,
1918,234422,258103,78.00,3,
1919,234422,258103,78.00,3,
1920,234422,258103,78.00,3,
1921,234422,258103,78.00,3,
1922,234422,258103,78.00,3,
1923,234422,258103,78.00,3,
1924,234422,258103,78.00,3,
1925,234422,258103,78.00,3,
1926,234422,258103,78.00,3,
1927,234422,258103,78.00,3,
1928,234422,258103,78.00,3,
1929,234422,258103,78.00,3,
1930,234422,258103,78.00,3,
1931,234422,258103,78.00,3,
1932,234422,258103,78.00,3,
1933,234422,258103,78.00,3,
1934,234422,258103,78.00,3,
1935,234422,258103,78.00,3,
1936,234422,258103,78.00,3,
1937,234422,258103,78.00,3,
1938,234422,258103,78.00,3,
1939,234422,258103,78.00,3,
1940,234422,258103,78.00,3,
1941,234422,258103,78.00,3,
1942,234422,258103,78.00,3,
1943,234422,258103,78.00,3,
1944,234422,258103,78.00,3,
1945,234422,258103,78.00,3,
1946,234422,258103,78.00,3,
1947,234422,258103,78.00,3,
1948,234422,258103,78.00,3,
1949,234422,258103,78.00,3,
1950,234422,258103,78.00,3,
1951,234422,258103,78.00,3,
1952,234422,258103,78.00,3,
1953,234422,258103,78.00,3,
1954,234422,258103,78.00,3,
1955,234422,258103,78.00,3,
1956,234422,258103,78.00,3,
1957,234422,258103,78.00,3,
1958,234422,258103,78.00,3,
1959,234422,258103,78.00,3,
1960,234422,258103,78.00,3,
1961,234422,258103,78.00,3,
1962,234422,258103,78.00,3,
1963,234422,258103,78.00,3,
1964,234422,258103,78.00,3,
1965,234422,258103,78.00,3,
1966,234422,258103,78.00,3,
1967,234422,258103,78.00,3,
1968,234422,258103,78.00,3,
1969,234422,258103,78.00,3,
1970,234422,258103,78.00,3,
1971,234422,258103,78.00,3,
1972,234422,258103,78.00,3,
1973,234422,258103,78.00,3,
1974,234422,258103,78.00,3,
1975,234422,258103,78.00,3,
1976,234422,258103,78.00,3,
1977,234422,258103,78.00,3,
1978,234422,258103,78.00,3,
1979,234422,258103,78.00,3,
1980,234422,258103,78.00,3,
1981,234422,258103,78.00,3,
1982,234422,258103,78.00,3,
1983,234422,258103,78.00,3,
1984,234422,258103,78.00,3,
1985,234422,258103,78.00,3,
1986,234422,258103,78.00,3,
1987,234422,258103,78.00,3,
1988,234422,258103,78.00,3,
1989,234422,258103,78.00,3,
1990,234422,258103,78.00,3,
1991,234422,258103,78.00,3,
1992,234422,258103,78.00,3,
1993,234422,258103,78.00,3,
1994,234422,258103,78.00,3,
1995,234422,258103,78.00,3,
1996,234422,258103,78.00,3,
1997,234422,258103,78.00,3,
1998,234422,258103,78.00,3,
1999,234422,258103,78.00,3,
2000,234422,258103,78.00,3,
2001,234422,258103,78.00,3,
2002,234422,258103,78.00,3,
2003,234422,258103,78.00,3,
2004,234422,258103,78.00,3,
2005,234422,258103,78.00,3,
2006,234422,258103,78.00,3,
2007,234422,258103,78.00,3,
2008,234422,258103,78.00,3,
2009,234422,258103,78.00,3,
2010,234422,258103,78.00,3,
2011,234422,258103,78.00,3,
2012,234422,258103,78.00,3,
2013,234422,258103,78.00,3,
2014,234422,258103,78.00,3,
2015,234422,258103,78.00,3,
2016,234422,258103,78.00,3,
2017,234422,258103,78.00,3,
2018,234422,258103,78.00,3,
2019,234422,258103,78.00,3,
2020,234422,258103,78.00,3,
2021,234422,258103,78.00,3,
2022,234422,258103,78.00,3,
2023,234422,258103,78.00,3,
2024,234422,258103,78.00,3,
2025,234422,258103,78.00,3,
2026,234422,258103,78.00,3,
2027,234422,258103,78.00,3,
2028,234422,258103,78.00,3,
2029,234422,258103,78.00,3,
2030,234422,258103,78.00,3,
2031,234422,258103,78.00,3,
2032,234422,258103,78.00,3,
2033,234422,258103,78.00,3,
2034,234422,258103,78.00,3,
2035,234422,258103,78.00,3,
2036,234422,258103,78.00,3,
2037,234422,258103,78.00,3,
2038,234422,258103,78.00,3,
2039,234422,258103,78.00,3,
2040,234422,258103,78.00,3,
2041,234422,258103,78.00,3,
2042,234422,258103,78.00,3,
2043,234422,258103,78.00,3,
2044,234422,258103,78.00,3,
2045,234422,258103,78.00,3,
2046,234422,258103,78.00,3,
2047,234422,258103,78.00,3,
2048,234422,258103,78.00,3,
2049,234422,258103,78.00,3,
2050,234422,258103,78.00,3,
2051,234422,258103,78.00,3,
2052,234422,258103,78.00,3,
2053,234422,258103,78.00,3,
2054,234422,258103,78.00,3,
2055,234422,258103,78.00,3,
2056,234422,258103,78.00,3,
2057,234422,258103,78.00,3,
2058,234422,258103,78.00,3,
2059,234422,258103,78.00,3,
2060,234422,258103,78.00,3,
2061,234422,258103,78.00,3,
2062,234422,258103,78.00,3,
2063,234422,258103,78.00,3,
2064,234422,258103,78.00,3,
2065,234422,258103,78.00,3,
2066,234422,258103,78.00,3,
2067,234422,258103,78.00,3,
2068,234422,258103,78.00,3,
2069,234422,258103,78.00,3,
2070,234422,258103,78.00,3,
2071,234422,258103,78.00,3,
2072,234422,258103,78.00,3,
2073,234422,258103,78.00,3,
2074,234422,258103,78.00,3,
2075,234422,258103,78.00,3,
2076,234422,258103,78.00,3,
2077,234422,258103,78.00,3,
2078,234422,258103,78.00,3,
2079,234422,258103,78.00,3,
2080,234422,258103,78.00,3,
2081,234422,258103,78.00,3,
2082,234422,258103,78.00,3,
2083,234422,258103,78.00,3,
2084,234422,258103,78.00,3,
2085,234422,258103,78.00,3,
2086,234422,258103,78.00,3,
2087,234422,258103,78.00,3,
2088,234422,258103,78.00,3,
2089,234422,258103,78.00,3,
2090,234422,258103,78.00,3,
2091,234422,258103,78.00,3,
2092,234422,258103,78.00,3,
2093,234422,258103,78.00,3,
2094,234422,258103,78.00,3,
2095,234422,258103,78.00,3,
2096,234422,258103,78.00,3,
2097,234422,258103,78.00,3,
2098,234422,258103,78.00,3,
2099,234422,258103,78.00,3,
2100,234422,258103,78.00,3,
2101,234422,258103,78.00,3,
2102,234422,258103,78.00,3,
2103,234422,258103,78.00,3,
2104,234422,258103,78.00,3,
2105,234422,258103,78.00,3,
2106,234422,258103,78.00,3,
2107,234422,258103,78.00,3,
2108,234422,258103,78.00,3,
2109,234422,258103,78.00,3,
2110,234422,258103,78.00,3,
2111,234422,258103,78.00,3,
2112,234422,258103,78.00,3,
2113,234422,258103,78.00,3,
2114,234422,258103,78.00,3,
2115,234422,258103,78.00,3,
2116,234422,258103,78.00,3,
2117,234422,258103,78.00,3,
2118,234422,258103,78.00,3,
2119,234422,258103,78.00,3,
2120,234422,258103,78.00,3,
2121,234422,258103,78.00,3,
2122,234422,258103,78.00,3,
2123,234422,258103,78.00,3,
2124,234422,258103,78.00,3,
2125,234422,258103,78.00,3,
2126,234422,258103,78.00,3,
2127,234422,258103,78.00,3,
2128,234422,258103,78.00,3,
2129,234422,258103,78.00,3,
2130,234422,258103,78.00,3,
2131,234422,258103,78.00,3,
2132,234422,258103,78.00,3,
2133,234422,258103,78.00,3,
2134,234422,258103,78.00,3,
2135,234422,258103,78.00,3,
2136,234422,258103,78.00,3,
2137,234422,258103,78.00,3,
2138,234422,258103,78.00,3,
2139,234422,258103,78.00,3,
2140,234422,258103,78.00,3,
2141,234422,258103,78.00,3,
2142,234422,258103,78.00,3,
2143,234422,258103,78.00,3,
2144,234422,258103,78.00,3,
2145,234422,258103,78.00,3,
2146,234422,258103,78.00,3,
2147,234422,258103,78.00,3,
2148,234422,258103,78.00,3,
2149,234422,258103,78.00,3,
2150,234422,258103,78.00,3,
2151,234422,258103,78.00,3,
2152,234422,258103,78.00,3,
2153,234422,258103,78.00,3,
2154,234422,258103,78.00,3,
2155,234422,258103,78.00,3,
2156,234422,258103,78.00,3,
2157,234422,258103,78.00,3,
2158,234422,258103,78.00,3,
2159,234422,258103,78.00,3,
2160,234422,258103,78.00,3,
2161,234422,258103,78.00,3,
2162,234422,258103,78.00,3,
2163,234422,258103,78.00,3,
2164,234422,258103,78.00,3,
2165,234422,258103,78.00,3,
2166,234422,258103,78.00,3,
2167,234422,258103,78.00,3,
2168,234422,258103,78.00,3,
2169,234422,258103,78.00,3,
2170,234422,258103,78.00,3,
2171,234422,258103,78.00,3,
2172,234422,258103,78.00,3,
2173,234422,258103,78.00,3,
2174,234422,258103,78.00,3,
2175,234422,258103,78.00,3,
2176,234422,258103,78.00,3,
2177,234422,258103,78.00,3,
2178,234422,258103,78.00,3,
2179,234422,258103,78.00,3,
2180,234422,258103,78.00,3,
2181,234422,258103,78.00,3,
2182,234422,258103,78.00,3,
2183,234422,258103,78.00,3,
2184,234422,258103,78.00,3,
2185,234422,258103,78.00,3,
2186,234422,258103,78.00,3,
2187,234422,258103,78.00,3,
2188,234422,258103,78.00,3,
2189,234422,258103,78.00,3,
2190,234422,258103,78.00,3,
2191,234422,258103,78.00,3,
2192,234422,258103,78.00,3,
2193,234422,258103,78.00,3,
2194,234422,258103,78.00,3,
2195,234422,258103,78.00,3,
2196,234422,258103,78.00,3,
2197,234422,258103,78.00,3,
2198,234422,258103,78.00,3,
2199,234422,258103,78.00,3,
2200,234422,258103,78.00,3,
2201,234422,258103,78.00,3,
2202,234422,258103,78.00,3,
2203,234422,258103,78.00,3,
2204,234422,258103,78.00,3,
2205,234422,258103,78.00,3,
2206,234422,258103,78.00,3,
2207,234422,258103,78.00,3,
2208,234422,258103,78.00,3,
2209,234422,258103,78.00,3,
2210,234422,258103,78.00,3,
2211,234422,258103,78.00,3,
2212,234422,258103,78.00,3,
2213,234422,258103,78.00,3,
2214,234422,258103,78.00,3,
2215,234422,258103,78.00,3,
2216,234422,258103,78.00,3,
2217,234422,258103,78.00,3,
2218,234422,258103,78.00,3,
2219,234422,258103,78.00,3,
2220,234422,258103,78.00,3,
2221,234422,258103,78.00,3,
2222,234422,258103,78.00,3,
2223,234422,258103,78.00,3,
2224,234422,258103,78.00,3,
2225,234422,258103,78.00,3,
2226,234422,258103,78.00,3,
2227,234422,258103,78.00,3,
2228,234422,258103,78.00,3,
2229,234422,258103,78.00,3,
2230,234422,258103,78.00,3,
2231,234422,258103,78.00,3,
2232,234422,258103,78.00,3,
2233,234422,258103,78.00,3,
2234,234422,258103,78.00,3,
2235,234422,258103,78.00,3,
2236,234422,258103,78.00,3,
2237,234422,258103,78.00,3,
2238,234422,258103,78.00,3,
2239,234422,258103,78.00,3,
2240,234422,258103,78.00,3,
2241,234422,258103,78.00,3,
2242,234422,258103,78.00,3,
2243,234422,258103,78.00,3,
2244,234422,258103,78.00,3,
2245,234422,258103,78.00,3,
2246,234422,258103,78.00,3,
2247,234422,258103,78.00,3,
2248,234422,258103,78.00,3,
2249,234422,258103,78.00,3,
2250,234422,258103,78.00,3,
2251,234422,258103,78.00,3,
2252,234422,258103,78.00,3,
2253,234422,258103,78.00,3,
2254,234422,258103,78.00,3,
2255,234422,258103,78.00,3,
2256,234422,258103,78.00,3,
2257,234422,258103,78.00,3,
2258,234422,258103,78.00,3,
2259,234422,258103,78.00,3,
2260,234422,258103,78.00,3,
2261,234422,258103,78.00,3,
2262,234422,258103,78.00,3,
2263,234422,258103,78.00,3,
2264,234422,258103,78.00,3,
2265,234422,258103,78.00,3,
2266,234422,258103,78.00,3,
2267,234422,258103,78.00,3,
2268,234422,258103,78.00,3,
2269,234422,258103,78.00,3,
2270,234422,258103,78.00,3,
2271,234422,258103,78.00,3,
2272,234422,258103,78.00,3,
2273,234422,258103,78.00,3,
2274,234422,258103,78.00,3,
2275,234422,258103,78.00,3,
2276,234422,258103,78.00,3,
2277,234422,258103,78.00,3,
2278,234422,258103,78.00,3,
2279,234422,258103,78.00,3,
2280,234422,258103,78.00,3,
2281,234422,258103,78.00,3,
2282,234422,258103,78.00,3,
2283,234422,258103,78.00,3,
2284,234422,258103,78.00,3,
2285,234422,258103,78.00,3,
2286,234422,258103,78.00,3,
2287,234422,258103,78.00,3,
2288,234422,258103,78.00,3,
2289,234422,258103,78.00,3,
2290,234422,258103,78.00,3,
2291,234422,258103,78.00,3,
2292,234422,258103,78.00,3,
2293,234422,258103,78.00,3,
2294,234422,258103,78.00,3,
2295,234422,258103,78.00,3,
2296,234422,258103,78.00,3,
2297,234422,258103,78.00,3,
2298,234422,258103,78.00,3,
2299,234422,258103,78.00,3,
2300,234422,258103,78.00,3,
2301,234422,258103,78.00,3,
2302,234422,258103,78.00,3,
2303,234422,258103,78.00,3,
2304,234422,258103,78.00,3,
2305,234422,258103,78.00,3,
2306,234422,258103,78.00,3,
2307,234422,258103,78.00,3,
2308,234422,258103,78.00,3,
2309,234422,258103,78.00,3,
2310,234422,258103,78.00,3,
2311,234422,258103,78.00,3,
2312,234422,258103,78.00,3,
2313,234422,258103,78.00,3,
2314,234422,258103,78.00,3,
2315,234422,258103,78.00,3,
2316,234422,258103,78.00,3,
2317,234422,258103,78.00,3,
2318,234422,258103,78.00,3,
2319,234422,258103,78.00,3,
2320,234422,258103,78.00,3,
2321,234422,258103,78.00,3,
2322,234422,258103,78.00,3,
2323,234422,258103,78.00,3,
2324,234422,258103,78.00,3,
2325,234422,258103,78.00,3,
2326,234422,258103,78.00,3,
2327,234422,258103,78.00,3,
2328,234422,258103,78.00,3,
2329,234422,258103,78.00,3,
2330,234422,258103,78.00,3,
2331,234422,258103,78.00,3,
2332,234422,258103,78.00,3,
2333,234422,258103,78.00,3,
2334,234422,258103,78.00,3,
2335,234422,258103,78.00,3,
2336,234422,258103,78.00,3,
2337,234422,258103,78.00,3,
2338,234422,258103,78.00,3,
2339,234422,258103,78.00,3,
2340,234422,258103,78.00,3,
2341,234422,258103,78.00,3,
2342,234422,258103,78.00,3,
2343,234422,258103,78.00,3,
2344,234422,258103,78.00,3,
2345,234422,258103,78.00,3,
2346,234422,258103,78.00,3,
2347,234422,258103,78.00,3,
2348,234422,258103,78.00,3,
2349,234422,258103,78.00,3,
2350,234422,258103,78.00,3,
2351,234422,258103,78.00,3,
2352,234422,258103,78.00,3,
2353,234422,258103,78.00,3,
2354,234422,258103,78.00,3,
2355,234422,258103,78.00,3,
2356,234422,258103,78.00,3,
2357,234422,258103,78.00,3,
2358,234422,258103,78.00,3,
2359,234422,258103,78.00,3,
2360,234422,258103,78.00,3,
2361,234422,258103,78.00,3,
2362,234422,258103,78.00,3,
2363,234422,258103,78.00,3,
2364,234422,258103,78.00,3,
2365,234422,258103,78.00,3,
2366,234422,258103,78.00,3,
2367,234422,258103,78.00,3,
2368,234422,258103,78.00,3,
2369,234422,258103,78.00,3,
2370,234422,258103,78.00,3,
2371,234422,258103,78.00,3,
2372,234422,258103,78.00,3,
2373,234422,258103,78.00,3,
2374,234422,258103,78.00,3,
2375,234422,258103,78.00,3,
2376,234422,258103,78.00,3,
2377,234422,258103,78.00,3,
2378,234422,258103,78.00,3,
2379,234422,258103,78.00,3,
2380,234422,258103,78.00,3,
2381,234422,258103,78.00,3,
2382,234422,258103,78.00,3,
2383,234422,258103,78.00,3,
2384,234422,258103,78.00,3,
2385,234422,258103,78.00,3,
2386,234422,258103,78.00,3,
2387,234422,258103,78.00,3,
2388,234422,258103,78.00,3,
2389,234422,258103,78.00,3,
2390,234422,258103,78.00,3,
2391,234422,258103,78.00,3,
2392,234422,258103,78.00,3,
2393,234422,258103,78.00,3,
2394,234422,258103,78.00,3,
2395,234422,258103,78.00,3,
2396,234422,258103,78.00,3,
2397,234422,258103,78.00,3,
2398,234422,258103,78.00,3,
2399,234422,258103,78.00,3,
2400,234422,258103,78.00,3,
2401,234422,258103,78.00,3,
2402,234422,258103,78.00,3,
2403,234422,258103,78.00,3,
2404,234422,258103,78.00,3,
2405,234422,258103,78.00,3,
2406,234422,258103,78.00,3,
2407,234422,258103,78.00,3,
2408,234422,258103,78.00,3,
2409,234422,258103,78.00,3,
2410,234422,258103,78.00,3,
2411,234422,258103,78.00,3,
2412,234422,258103,78.00,3,
2413,234422,258103,78.00,3,
2414,234422,258103,78.00,3,
2415,234422,258103,78.00,3,
2416,234422,258103,78.00,3,
2417,234422,258103,78.00,3,
2418,234422,258103,78.00,3,
2419,234422,258103,78.00,3,
2420,234422,258103,78.00,3,
2421,234422,258103,78.00,3,
2422,234422,258103,78.00,3,
2423,234422,258103,78.00,3,
2424,234422,258103,78.00,3,
2425,234422,258103,78.00,3,
2426,234422,258103,78.00,3,
2427,234422,258103,78.00,3,
2428,234422,258103,78.00,3,
2429,234422,258103,78.00,3,
2430,234422,258103,78.00,3,
2431,234422,258103,78.00,3,
2432,234422,258103,78.00,3,
2433,234422,258103,78.00,3,
2434,234422,258103,78.00,3,
2435,234422,258103,78.00,3,
2436,234422,258103,78.00,3,
2437,234422,258103,78.00,3,
2438,234422,258103,78.00,3,
2439,234422,258103,78.00,3,
2440,234422,258103,78.00,3,
2441,234422,258103,78.00,3,
2442,234422,258103,78.00,3,
2443,234422,258103,78.00,3,
2444,234422,258103,78.00,3,
2445,234422,258103,78.00,3,
2446,234422,258103,78.00,3,
2447,234422,258103,78.00,3,
2448,234422,258103,78.00,3,
2449,234422,258103,78.00,3,
2450,234422,258103,78.00,3,
2451,234422,258103,48.80,3,
2452,234422,258103,86.00,3,
2453,234422,258103,70.00,3,
2454,234422,258103,70.00,3,
2455,234422,258103,70.00,3,
2456,234422,258103,70.00,3,
2457,234422,258103,70.00,3,
2458,234422,258103,70.00,3,
2459,234422,258103,70.00,3,
2460,234422,258103,70.00,3,
2461,234422,258103,70.00,3,
2462,234422,258103,70.00,3,
2463,234422,258103,70.00,3,
2464,234422,258103,70.00,3,
2465,234422,258103,70.00,3,
2466,234422,258103,70.00,3,
2467,234422,258103,70.00,3,
2468,234422,258103,70.00,3,
2469,234422,258103,80.00,3,
2470,234422,258103,86.80,3,
2471,234422,258103,78.00,3,
2472,234422,258103,78.00,3,
2473,234422,258103,78.00,3,
2474,234422,258103,78.00,3,
2475,234422,258103,78.00,3,
2476,234422,258103,78.00,3,
2477,234422,258103,78.00,3,
2478,234422,258103,78.00,3,
2479,234422,258103,78.00,3,
2480,234422,258103,78.00,3,
2481,234422,258103,78.00,3,
2482,234422,258103,78.00,3,
2483,234422,258103,78.00,3,
2484,234422,258103,78.00,3,
2485,234422,258103,78.00,3,
2486,234422,258103,78.00,3,
2487,234422,258103,78.00,3,
2488,234422,258103,78.00,3,
2489,234422,258103,78.00,3,
2490,234422,258103,78.00,3,
2491,234422,258103,78.00,3,
2492,234422,258103,78.00,3,
2493,234422,258103,78.00,3,
2494,234422,258103,78.00,3,
2495,234422,258103,78.00,3,
2496,234422,258103,78.00,3,
2497,234422,258103,78.00,3,
2498,234422,258103,78.00,3,
2499,234422,258103,78.00,3,
2500,234422,258103,78.00,3,
2501,234422,258103,78.00,3,
2502,234422,258103,78.00,3,
2503,234422,258103,78.00,3,
2504,234422,258103,78.00,3,
2505,234422,258103,78.00,3,
2506,234422,258103,78.00,3,
2507,234422,258103,78.00,3,
2508,234422,258103,78.00,3,
2509,234422,258103,78.00,3,
2510,234422,258103,78.00,3,
2511,234422,258103,78.00,3,
2512,234422,258103,78.00,3,
2513,234422,258103,78.00,3,
2514,234422,258103,78.00,3,
2515,234422,258103,78.00,3,
2516,234422,258103,78.00,3,
2517,234422,258103,78.00,3,
2518,234422,258103,78.00,3,
2519,234422,258103,78.00,3,
2520,234422,258103,78.00,3,
2521,234422,258103,78.00,3,
2522,234422,258103,78.00,3,
2523,234422,258103,78.00,3,
2524,234422,258103,78.00,3,
2525,234422,258103,78.00,3,
2526,234422,258103,78.00,3,
2527,234422,258103,78.00,3,
2528,234422,258103,78.00,3,
2529,234422,258103,78.00,3,
2530,234422,258103,78.00,3,
2531,234422,258103,78.00,3,
2532,234422,258103,78.00,3,
2533,234422,258103,78.00,3,
2534,234422,258103,78.00,3,
2535,234422,258103,78.00,3,
2536,234422,258103,78.00,3,
2537,234422,258103,78.00,3,
2538,234422,258103,78.00,3,
2539,234422,258103,78.00,3,
2540,234422,258103,78.00,3,
2541,234422,258103,78.00,3,
2542,234422,258103,78.00,3,
2543,234422,258103,78.00,3,
2544,234422,258103,78.00,3,
2545,234422,258103,78.00,3,
2546,234422,258103,78.00,3,
2547,234422,258103,78.00,3,
2548,234422,258103,78.00,3,
2549,234422,258103,78.00,3,
2550,234422,258103,78.00,3,
2551,234422,258103,78.00,3,
2552,234422,258103,78.00,3,
2553,234422,258103,78.00,3,
2554,234422,258103,78.00,3,
2555,234422,258103,78.00,3,
2556,234422,258103,78.00,3,
2557,234422,258103,78.00,3,
2558,234422,258103,78.00,3,
2559,234422,258103,78.00,3,
2560,234422,258103,78.00,3,
2561,234422,258103,78.00,3,
2562,234422,258103,78.00,3,
2563,234422,258103,78.00,3,
2564,234422,258103,78.00,3,
2565,234422,258103,78.00,3,
2566,234422,258103,78.00,3,
2567,234422,258103,78.00,3,
2568,234422,258103,78.00,3,
2569,234422,258103,78.00,3,
2570,234422,258103,78.00,3,
2571,234422,258103,78.00,3,
2572,234422,258103,78.00,3,
2573,234422,258103,78.00,3,
2574,234422,258103,78.00,3,
2575,234422,258103,78.00,3,
2576,234422,258103,78.00,3,
2577,234422,258103,78.00,3,
2578,234422,258103,78.00,3,
2579,234422,258103,78.00,3,
2580,234422,258103,78.00,3,
2581,234422,258103,78.00,3,
2582,234422,258103,78.00,3,
2583,234422,258103,78.00,3,
2584,234422,258103,78.00,3,
2585,234422,258103,78.00,3,
2586,234422,258103,78.00,3,
2587,234422,258103,78.00,3,
2588,234422,258103,78.00,3,
2589,234422,258103,78.00,3,
2590,234422,258103,78.00,3,
2591,234422,258103,78.00,3,
2592,234422,258103,78.00,3,
2593,234422,258103,78.00,3,
2594,234422,258103,78.00,3,
2595,234422,258103,78.00,3,
2596,234422,258103,78.00,3,
2597,234422,258103,78.00,3,
2598,234422,258103,78.00,3,
2599,234422,258103,78.00,3,
2600,234422,258103,78.00,3,
2601,234422,258103,78.00,3,
2602,234422,258103,78.00,3,
2603,234422,258103,78.00,3,
2604,234422,258103,78.00,3,
2605,234422,258103,78.00,3,
2606,234422,258103,78.00,3,
2607,234422,258103,78.00,3,
2608,234422,258103,78.00,3,
2609,234422,258103,78.00,3,
2610,234422,258103,78.00,3,
2611,234422,258103,78.00,3,
2612,234422,258103,78.00,3,
2613,234422,258103,78.00,3,
2614,234422,258103,78.00,3,
2615,234422,258103,78.00,3,
2616,234422,258103,78.00,3,
2617,234422,258103,78.00,3,
2618,234422,258103,78.00,3,
2619,234422,258103,78.00,3,
2620,234422,258103,78.00,3,
2621,234422,258103,78.00,3,
2622,234422,258103,78.00,3,
2623,234422,258103,78.00,3,
2624,234422,258103,78.00,3,
2625,234422,258103,78.00,3,
2626,234422,258103,78.00,3,
2627,234422,258103,78.00,3,
2628,234422,258103,78.00,3,
2629,234422,258103,78.00,3,
2630,234422,258103,78.00,3,
2631,234422,258103,78.00,3,
2632,234422,258103,78.00,3,
2633,234422,258103,78.00,3,
2634,234422,258103,78.00,3,
2635,234422,258103,78.00,3,
2636,234422,258103,78.00,3,
2637,234422,258103,78.00,3,
2638,234422,258103,78.00,3,
2639,234422,258103,78.00,3,
2640,234422,258103,78.00,3,
2641,234422,258103,78.00,3,
2642,234422,258103,78.00,3,
2643,234422,258103,78.00,3,
2644,234422,258103,78.00,3,
2645,234422,258103,78.00,3,
2646,234422,258103,78.00,3,
2647,234422,258103,78.00,3,
2648,234422,258103,78.00,3,
2649,234422,258103,78.00,3,
2650,234422,258103,78.00,3,
2651,234422,258103,78.00,3,
2652,234422,258103,78.00,3,
2653,234422,258103,78.00,3,
2654,234422,258103,78.00,3,
2655,234422,258103,78.00,3,
2656,234422,258103,78.00,3,
2657,234422,258103,78.00,3,
2658,234422,258103,78.00,3,
2659,234422,258103,78.00,3,
2660,234422,258103,78.00,3,
2661,234422,258103,78.00,3,
2662,234422,258103,78.00,3,
2663,234422,258103,78.00,3,
2664,234422,258103,78.00,3,
2665,234422,258103,78.00,3,
2666,234422,258103,78.00,3,
2667,234422,258103,78.00,3,
2668,234422,258103,78.00,3,
2669,234422,258103,78.00,3,
2670,234422,258103,78.00,3,
2671,234422,258103,78.00,3,
2672,234422,258103,78.00,3,
2673,234422,258103,78.00,3,
2674,234422,258103,78.00,3,
2675,234422,258103,78.00,3,
2676,234422,258103,78.00,3,
2677,234422,258103,78.00,3,
2678,234422,258103,78.00,3,
2679,234422,258103,78.00,3,
2680,234422,258103,78.00,3,
2681,234422,258103,78.00,3,
2682,234422,258103,78.00,3,
2683,234422,258103,78.00,3,
2684,234422,258103,78.00,3,
2685,234422,258103,78.00,3,
2686,234422,258103,78.00,3,
2687,234422,258103,78.00,3,
2688,234422,258103,78.00,3,
2689,234422,258103,78.00,3,
2690,234422,258103,78.00,3,
2691,234422,258103,78.00,3,
2692,234422,258103,78.00,3,
2693,234422,258103,78.00,3,
2694,234422,258103,78.00,3,
2695,234422,258103,78.00,3,
2696,234422,258103,78.00,3,
2697,234422,258103,78.00,3,
2698,234422,258103,78.00,3,
2699,234422,258103,78.00,3,
2700,234422,258103,78.00,3,
2701,234422,258103,78.00,3,
2702,234422,258103,78.00,3,
2703,234422,258103,78.00,3,
2704,234422,258103,78.00,3,
2705,234422,258103,78.00,3,
2706,234422,258103,78.00,3,
2707,234422,258103,78.00,3,
2708,234422,258103,78.00,3,
2709,234422,258103,78.00,3,
2710,234422,258103,78.00,3,
2711,234422,258103,78.00,3,
2712,234422,258103,78.00,3,
2713,234422,258103,78.00,3,
2714,234422,258103,78.00,3,
2715,234422,258103,78.00,3,
2716,234422,258103,78.00,3,
2717,234422,258103,78.00,3,
2718,234422,258103,78.00,3,
2719,234422,258103,78.00,3,
2720,234422,258103,78.00,3,
2721,234422,258103,78.00,3,
2722,234422,258103,78.00,3,
2723,234422,258103,78.00,3,
2724,234422,258103,78.00,3,
2725,234422,258103,78.00,3,
2726,234422,258103,78.00,3,
2727,234422,258103,78.00,3,
2728,234422,258103,78.00,3,
2729,234422,258103,78.00,3,
2730,234422,258103,78.00,3,
2731,234422,258103,78.00,3,
2732,234422,258103,78.00,3,
2733,234422,258103,78.00,3,
2734,234422,258103,78.00,3,
2735,234422,258103,78.00,3,
2736,234422,258103,78.00,3,
2737,234422,258103,78.00,3,
2738,234422,258103,78.00,3,
2739,234422,258103,78.00,3,
2740,234422,258103,78.00,3,
2741,234422,258103,78.00,3,
2742,234422,258103,78.00,3,
2743,234422,258103,78.00,3,
2744,234422,258103,78.00,3,
2745,234422,258103,78.00,3,
2746,234422,258103,78.00,3,
2747,234422,258103,78.00,3,
2748,234422,258103,78.00,3,
2749,234422,258103,78.00,3,
2750,234422,258103,78.00,3,
2751,234422,258103,78.00,3,
2752,234422,258103,78.00,3,
2753,234422,258103,78.00,3,
2754,234422,258103,78.00,3,
2755,234422,258103,78.00,3,
2756,234422,258103,78.00,3,
2757,234422,258103,78.00,3,
2758,234422,258103,78.00,3,
2759,234422,258103,78.00,3,
2760,234422,258103,78.00,3,
2761,234422,258103,78.00,3,
2762,234422,258103,78.00,3,
2763,234422,258103,78.00,3,
2764,234422,258103,78.00,3,
2765,234422,258103,78.00,3,
2766,234422,258103,78.00,3,
2767,234422,258103,78.00,3,
2768,234422,258103,78.00,3,
2769,234422,258103,78.00,3,
2770,234422,258103,78.00,3,
2771,234422,258103,78.00,3,
2772,234422,258103,78.00,3,
2773,234422,258103,78.00,3,
2774,234422,258103,78.00,3,
2775,234422,258103,78.00,3,
2776,234422,258103,78.00,3,
2777,234422,258103,78.00,3,
2778,234422,258103,78.00,3,
2779,234422,258103,78.00,3,
2780,234422,258103,78.00,3,
2781,234422,258103,78.00,3,
2782,234422,258103,78.00,3,
2783,234422,258103,78.00,3,
2784,234422,258103,78.00,3,
2785,234422,258103,78.00,3,
2786,234422,258103,78.00,3,
2787,234422,258103,78.00,3,
2788,234422,258103,78.00,3,
2789,234422,258103,78.00,3,
2790,234422,258103,78.00,3,
2791,234422,258103,78.00,3,
2792,234422,258103,78.00,3,
2793,234422,258103,78.00,3,
2794,234422,258103,78.00,3,
2795,234422,258103,78.00,3,
2796,234422,258103,78.00,3,
2797,234422,258103,78.00,3,
2798,234422,258103,78.00,3,
2799,234422,258103,78.00,3,
2800,234422,258103,78.00,3,
2801,234422,258103,78.00,3,
2802,234422,258103,78.00,3,
2803,234422,258103,78.00,3,
2804,234422,258103,78.00,3,
2805,234422,258103,78.00,3,
2806,234422,258103,78.00,3,
2807,234422,258103,78.00,3,
2808,234422,258103,78.00,3,
2809,234422,258103,78.00,3,
2810,234422,258103,78.00,3,
2811,234422,258103,78.00,3,
2812,234422,258103,78.00,3,
2813,234422,258103,78.00,3,
2814,234422,258103,78.00,3,
2815,234422,258103,78.00,3,
2816,234422,258103,78.00,3,
2817,234422,258103,78.00,3,
2818,234422,258103,78.00,3,
2819,234422,258103,78.00,3,
2820,234422,258103,78.00,3,
2821,234422,258103,78.00,3,
2822,234422,258103,78.00,3,
2823,234422,258103,78.00,3,
2824,234422,258103,78.00,3,
2825,234422,258103,78.00,3,
2826,234422,258103,78.00,3,
2827,234422,258103,78.00,3,
2828,234422,258103,78.00,3,
2829,234422,258103,78.00,3,
2830,234422,258103,78.00,3,
2831,234422,258103,78.00,3,
2832,234422,258103,78.00,3,
2833,234422,258103,78.00,3,
2834,234422,258103,78.00,3,
2835,234422,258103,78.00,3,
2836,234422,258103,78.00,3,
2837,234422,258103,78.00,3,
2838,234422,258103,78.00,3,
2839,234422,258103,78.00,3,
2840,234422,258103,78.00,3,
2841,234422,258103,78.00,3,
2842,234422,258103,78.00,3,
2843,234422,258103,78.00,3,
2844,234422,258103,78.00,3,
2845,234422,258103,78.00,3,
2846,234422,258103,78.00,3,
2847,234422,258103,78.00,3,
2848,234422,258103,78.00,3,
2849,234422,258103,78.00,3,
2850,234422,258103,78.00,3,
2851,234422,258103,78.00,3,
2852,234422,258103,78.00,3,
2853,234422,258103,78.00,3,
2854,234422,258103,78.00,3,
2855,234422,258103,78.00,3,
2856,234422,258103,78.00,3,
2857,234422,258103,78.00,3,
2858,234422,258103,78.00,3,
2859,234422,258103,78.00,3,
2860,234422,258103,78.00,3,
2861,234422,258103,78.00,3,
2862,234422,258103,78.00,3,
2863,234422,258103,78.00,3,
2864,234422,258103,78.00,3,
2865,234422,258103,78.00,3,
2866,234422,258103,78.00,3,
2867,234422,258103,78.00,3,
2868,234422,258103,78.00,3,
2869,234422,258103,78.00,3,
2870,234422,258103,78.00,3,
2871,234422,258103,78.00,3,
2872,234422,258103,78.00,3,
2873,234422,258103,78.00,3,
2874,234422,258103,78.00,3,
2875,234422,258103,78.00,3,
2876,234422,258103,78.00,3,
2877,234422,258103,78.00,3,
2878,234422,258103,78.00,3,
2879,234422,258103,78.00,3,
2880,234422,258103,78.00,3,
2881,234422,258103,78.00,3,
2882,234422,258103,78.00,3,
2883,234422,258103,78.00,3,
2884,234422,258103,78.00,3,
2885,234422,258103,78.00,3,
2886,234422,258103,78.00,3,
2887,234422,258103,78.00,3,
2888,234422,258103,78.00,3,
2889,234422,258103,78.00,3,
2890,234422,258103,78.00,3,
2891,234422,258103,78.00,3,
2892,234422,258103,78.00,3,
2893,234422,258103,78.00,3,
2894,234422,258103,78.00,3,
2895,234422,258103,78.00,3,
2896,234422,258103,78.00,3,
2897,234422,258103,78.00,3,
2898,234422,258103,78.00,3,
2899,234422,258103,78.00,3,
2900,234422,258103,78.00,3,
2901,234422,258103,78.00,3,
2902,234422,258103,78.00,3,
2903,234422,258103,78.00,3,
2904,234422,258103,78.00,3,
2905,234422,258103,78.00,3,
2906,234422,258103,78.00,3,
2907,234422,258103,78.00,3,
2908,234422,258103,78.00,3,
2909,234422,258103,78.00,3,
2910,234422,258103,78.00,3,
2911,234422,258103,78.00,3,
2912,234422,258103,78.00,3,
2913,234422,258103,78.00,3,
2914,234422,258103,78.00,3,
2915,234422,258103,78.00,3,
2916,234422,258103,78.00,3,
2917,234422,258103,78.00,3,
2918,234422,258103,78.00,3,
2919,234422,258103,78.00,3,
2920,234422,258103,78.00,3,
2921,234422,258103,78.00,3,
2922,234422,258103,78.00,3,
2923,234422,258103,78.00,3,
2924,234422,258103,78.00,3,
2925,234422,258103,78.00,3,
2926,234422,258103,78.00,3,
2927,234422,258103,78.00,3,
2928,234422,258103,78.00,3,
2929,234422,258103,78.00,3,
2930,234422,258103,78.00,3,
2931,234422,258103,78.00,3,
2932,234422,258103,78.00,3,
2933,234422,258103,78.00,3,
2934,234422,258103,78.00,3,
2935,234422,258103,78.00,3,
2936,234422,258103,78.00,3,
2937,234422,258103,78.00,3,
2938,234422,258103,78.00,3,
2939,234422,258103,78.00,3,
2940,234422,258103,78.00,3,
2941,234422,258103,78.00,3,
2942,234422,258103,78.00,3,
2943,234422,258103,78.00,3,
2944,234422,258103,78.00,3,
2945,234422,258103,78.00,3,
2946,234422,258103,78.00,3,
2947,234422,258103,78.00,3,
2948,234422,258103,78.00,3,
2949,234422,258103,78.00,3,
2950,234422,258103,78.00,3,
2951,234422,258103,78.00,3,
2952,234422,258103,78.00,3,
2953,234422,258103,78.00,3,
2954,234422,258103,78.00,3,
2955,234422,258103,78.00,3,
2956,234422,258103,78.00,3,
2957,234422,258103,78.00,3,
2958,234422,258103,78.00,3,
2959,234422,258103,78.00,3,
2960,234422,258103,78.00,3,
2961,234422,258103,78.00,3,
2962,234422,258103,78.00,3,
2963,234422,258103,78.00,3,
2964,234422,258103,78.00,3,
2965,234422,258103,78.00,3,
2966,234422,258103,78.00,3,
2967,234422,258103,78.00,3,
2968,234422,258103,78.00,3,
2969,234422,258103,78.00,3,
2970,234422,258103,78.00,3,
2971,234422,258103,78.00,3,
2972,234422,258103,78.00,3,
2973,234422,258103,78.00,3,
2974,234422,258103,78.00,3,
2975,234422,258103,78.00,3,
2976,234422,258103,78.00,3,
2977,234422,258103,78.00,3,
2978,234422,258103,78.00,3,
2979,234422,258103,78.00,3,
2980,234422,258103,78.00,3,
2981,234422,258103,78.00,3,
2982,234422,258103,78.00,3,
2983,234422,258103,78.00,3,
2984,234422,258103,78.00,3,
2985,234422,258103,78.00,3,
2986,234422,258103,78.00,3,
2987,234422,258103,78.00,3,
2988,234422,258103,78.00,3,
2989,234422,258103,78.00,3,
2990,234422,258103,78.00,3,
2991,234422,258103,78.00,3,
2992,234422,258103,78.00,3,
2993,234422,258103,78.00,3,
2994,234422,258103,78.00,3,
2995,234422,258103,78.00,3,
2996,234422,258103,78.00,3,
2997,234422,258103,78.00,3,
2998,234422,258103,78.00,3,
2999,234422,258103,78.00,3,
3000,234422,258103,78.00,3,
3001,234422,258103,78.00,3,
3002,234422,258103,78.00,3,
3003,234422,258103,78.00,3,
3004,234422,258103,78.00,3,
3005,234422,258103,78.00,3,
3006,234422,258103,78.00,3,
3007,234422,258103,78.00,3,
3008,234422,258103,78.00,3,
3009,234422,258103,78.00,3,
3010,234422,258103,78.00,3,
3011,234422,258103,78.00,3,
3012,234422,258103,78.00,3,
3013,234422,258103,78.00,3,
3014,234422,258103,78.00,3,
3015,234422,258103,78.00,3,
3016,234422,258103,78.00,3,
3017,234422,258103,78.00,3,
3018,234422,258103,78.00,3,
3019,234422,258103,78.00,3,
3020,234422,258103,78.00,3,
3021,234422,258103,78.00,3,
3022,234422,258103,78.00,3,
3023,234422,258103,78.00,3,
3024,234422,258103,78.00,3,
3025,234422,258103,78.00,3,
3026,234422,258103,78.00,3,
3027,234422,258103,78.00,3,
3028,234422,258103,78.00,3,
3029,234422,258103,78.00,3,
3030,234422,258103,78.00,3,
3031,234422,258103,78.00,3,
3032,234422,258103,78.00,3,
3033,234422,258103,78.00,3,
3034,234422,258103,78.00,3,
3035,234422,258103,78.00,3,
3036,234422,258103,78.00,3,
3037,234422,258103,78.00,3,
3038,234422,258103,78.00,3,
3039,234422,258103,78.00,3,
3040,234422,258103,78.00,3,
3041,234422,258103,78.00,3,
3042,234422,258103,78.00,3,
3043,234422,258103,78.00,3,
3044,234422,258103,78.00,3,
3045,234422,258103,78.00,3,
3046,234422,258103,78.00,3,
3047,234422,258103,78.00,3,
3048,234422,258103,78.00,3,
3049,234422,258103,78.00,3,
3050,234422,258103,78.00,3,
3051,234422,258103,78.00,3,
3052,234422,258103,78.00,3,
3053,234422,258103,78.00,3,
3054,234422,258103,78.00,3,
3055,234422,258103,78.00,3,
3056,234422,258103,78.00,3,
3057,234422,258103,78.00,3,
3058,234422,258103,78.00,3,
3059,234422,258103,78.00,3,
3060,234422,258103,78.00,3,
3061,234422,258103,78.00,3,
3062,234422,258103,78.00,3,
3063,234422,258103,78.00,3,
3064,234422,258103,78.00,3,
3065,234422,258103,78.00,3,
3066,234422,258103,78.00,3,
3067,234422,258103,78.00,3,
3068,234422,258103,78.00,3,
3069,234422,258103,78.00,3,
3070,234422,258103,78.00,3,
3071,234422,258103,78.00,3,
3072,234422,258103,78.00,3,
3073,234422,258103,78.00,3,
3074,234422,258103,78.00,3,
3075,234422,258103,78.00,3,
3076,234422,258103,78.00,3,
3077,234422,258103,78.00,3,
3078,234422,258103,78.00,3,
3079,234422,258103,78.00,3,
3080,234422,258103,78.00,3,
3081,234422,258103,78.00,3,
3082,234422,258103,78.00,3,
3083,234422,258103,78.00,3,
3084,234422,258103,78.00,3,
3085,234422,258103,78.00,3,
3086,234422,258103,78.00,3,
3087,234422,258103,78.00,3,
3088,234422,258103,78.00,3,
3089,234422,258103,78.00,3,
3090,234422,258103,78.00,3,
3091,234422,258103,78.00,3,
3092,234422,258103,78.00,3,
3093,234422,258103,78.00,3,
3094,234422,258103,78.00,3,
3095,234422,258103,78.00,3,
3096,234422,258103,78.00,3,
3097,234422,258103,78.00,3,
3098,234422,258103,78.00,3,
3099,234422,258103,78.00,3,
3100,234422,258103,78.00,3,
3101,234422,258103,78.00,3,
3102,234422,258103,78.00,3,
3103,234422,258103,78.00,3,
3104,234422,258103,78.00,3,
3105,234422,258103,78.00,3,
3106,234422,258103,78.00,3,
3107,234422,258103,78.00,3,
3108,234422,258103,78.00,3,
3109,234422,258103,78.00,3,
3110,234422,258103,78.00,3,
3111,234422,258103,78.00,3,
3112,234422,258103,78.00,3,
3113,234422,258103,78.00,3,
3114,234422,258103,78.00,3,
3115,234422,258103,78.00,3,
3116,234422,258103,78.00,3,
3117,234422,258103,78.00,3,
3118,234422,258103,78.00,3,
3119,234422,258103,78.00,3,
3120,234422,258103,78.00,3,
3121,234422,258103,78.00,3,
3122,234422,258103,78.00,3,
3123,234422,258103,78.00,3,
3124,234422,258103,78.00,3,
3125,234422,258103,78.00,3,
3126,234422,258103,78.00,3,
3127,234422,258103,78.00,3,
3128,234422,258103,78.00,3,
3129,234422,258103,78.00,3,
3130,234422,258103,78.00,3,
3131,234422,258103,78.00,3,
3132,234422,258103,78.00,3,
3133,234422,258103,78.00,3,
3134,234422,258103,78.00,3,
3135,234422,258103,78.00,3,
3136,234422,258103,78.00,3,
3137,234422,258103,78.00,3,
3138,234422,258103,78.00,3,
3139,234422,258103,78.00,3,
3140,234422,258103,78.00,3,
3141,234422,258103,78.00,3,
3142,234422,258103,78.00,3,
3143,234422,258103,78.00,3,
3144,234422,258103,78.00,3,
3145,234422,258103,78.00,3,
3146,234422,258103,78.00,3,
3147,234422,258103,78.00,3,
3148,234422,258103,78.00,3,
3149,234422,258103,78.00,3,
3150,234422,258103,78.00,3,
3151,234422,258103,78.00,3,
3152,234422,258103,78.00,3,
3153,234422,258103,78.00,3,
3154,234422,258103,78.00,3,
3155,234422,258103,78.00,3,
3156,234422,258103,78.00,3,
3157,234422,258103,78.00,3,
3158,234422,258103,78.00,3,
3159,234422,258103,78.00,3,
3160,234422,258103,78.00,3,
3161,234422,258103,78.00,3,
3162,234422,258103,78.00,3,
3163,234422,258103,78.00,3,
3164,234422,258103,78.00,3,
3165,234422,258103,78.00,3,
3166,234422,258103,78.00,3,
3167,234422,258103,78.00,3,
3168,234422,258103,78.00,3,
3169,234422,258103,78.00,3,
3170,234422,258103,78.00,3,
3171,234422,258103,78.00,3,
3172,234422,258103,78.00,3,
3173,234422,258103,78.00,3,
3174,234422,258103,78.00,3,
3175,234422,258103,78.00,3,
3176,234422,258103,78.00,3,
3177,234422,258103,78.00,3,
3178,234422,258103,78.00,3,
3179,234422,258103,78.00,3,
3180,234422,258103,78.00,3,
3181,234422,258103,78.00,3,
3182,234422,258103,78.00,3,
3183,234422,258103,78.00,3,
3184,234422,258103,78.00,3,
3185,234422,258103,78.00,3,
3186,234422,258103,78.00,3,
3187,234422,258103,78.00,3,
3188,234422,258103,78.00,3,
3189,234422,258103,78.00,3,
3190,234422,258103,78.00,3,
3191,234422,258103,78.00,3,
3192,234422,258103,78.00,3,
3193,234422,258103,78.00,3,
3194,234422,258103,78.00,3,
3195,234422,258103,78.00,3,
3196,234422,258103,78.00,3,
3197,234422,258103,78.00,3,
3198,234422,258103,78.00,3,
3199,234422,258103,78.00,3,
3200,234422,258103,78.00,3,
3201,234422,258103,78.00,3,
3202,234422,258103,78.00,3,
3203,234422,258103,78.00,3,
